LCID;CID;LAC;NET;PSC;RNC;RXL;QUAL;RSRP;RSRQ;ECIO;TYPE;LAT;LON;SPEED;ALT;SNR;DATE;TIME;N1CID;N1LAC;N1RXL;N2CID;N2LAC;N2RXL;N3CID;N3LAC;N3RXL;N4CID;N4LAC;N4RXL;N5CID;N5LAC;N5RXL;N6CID;N6LAC;N6RXL
16238338;63431;30843;310260;-1;2;-81;-10.6;-107;-17;88;LTE;30.42972;-97.75948;24;255;-10.6;2019/09/10;17:37:17;17015043;30841;-111;491;-1;-106;103;-1;-108;245;-1;-109;87;-1;-107;489;-1;-105
16238338;63431;30843;310260;-1;2;-81;-10.6;-107;-17;88;LTE;30.42976;-97.75954;24;255;-10.6;2019/09/10;17:37:18;16238338;30843;-106;87;-1;-104;186;-1;-109;489;-1;-107;245;-1;-108
16238338;63431;30843;310260;-1;2;-71;-6.6;-107;-19;88;LTE;30.42978;-97.75960;24;255;-6.6;2019/09/10;17:37:19;16238338;30843;-106;87;-1;-104;186;-1;-109;489;-1;-107;245;-1;-108
16238338;63431;30843;310260;-1;2;-71;-6.6;-107;-19;88;LTE;30.42981;-97.75966;25;255;-6.6;2019/09/10;17:37:20;16238338;30843;-106;87;-1;-104;186;-1;-109;489;-1;-107;245;-1;-108
17015043;66465;30841;310260;-1;3;-71;-1.8;-107;-19;88;LTE;30.42984;-97.75973;28;255;-1.8;2019/09/10;17:37:21;17015043;30841;-106;491;-1;-110;87;-1;-110;103;-1;-111;214;-1;-108;489;-1;-112
17015043;66465;30841;310260;-1;3;-71;-7.0;-107;-19;88;LTE;30.42988;-97.75981;32;256;-7.0;2019/09/10;17:37:22;17015043;30841;-106;491;-1;-110;87;-1;-110;103;-1;-111;214;-1;-108;489;-1;-112
17015043;66465;30841;310260;-1;3;-71;-7.0;-107;-19;88;LTE;30.42992;-97.75989;31;256;-7.0;2019/09/10;17:37:23;17015043;30841;-106;491;-1;-110;87;-1;-110;103;-1;-111;214;-1;-108;489;-1;-112
17015043;66465;30841;310260;-1;3;-71;-7.0;-107;-19;88;LTE;30.42995;-97.75998;33;256;-7.0;2019/09/10;17:37:24;17015043;30841;-108;491;-1;-107;214;-1;-110;87;-1;-110;489;-1;-109
17015043;66465;30841;310260;-1;3;-71;-2.4;-107;-19;88;LTE;30.43000;-97.76007;37;256;-2.4;2019/09/10;17:37:25;17015043;30841;-108;491;-1;-107;214;-1;-110;87;-1;-110;489;-1;-109
17015043;66465;30841;310260;-1;3;-71;-2.4;-107;-19;88;LTE;30.43004;-97.76016;39;257;-2.4;2019/09/10;17:37:26;17015043;30841;-108;491;-1;-107;214;-1;-110;87;-1;-110;489;-1;-109
16238338;63431;30843;310260;-1;2;-77;-2.4;-103;-17;88;LTE;30.43009;-97.76026;41;257;-2.4;2019/09/10;17:37:27;16238338;30843;-106;489;-1;-105;87;-1;-106;416;-1;-108
16238338;63431;30843;310260;-1;2;-69;-8.4;-103;-17;88;LTE;30.43015;-97.76037;42;258;-8.4;2019/09/10;17:37:28;16238338;30843;-106;489;-1;-105;87;-1;-106;416;-1;-108
16238338;63431;30843;310260;-1;2;-69;-8.4;-103;-17;88;LTE;30.43020;-97.76047;44;259;-8.4;2019/09/10;17:37:29;16238338;30843;-106;489;-1;-105;87;-1;-106;416;-1;-108
16238338;63431;30843;310260;-1;2;-69;-8.4;-103;-17;88;LTE;30.43026;-97.76058;46;259;-8.4;2019/09/10;17:37:30;16238338;30843;-106;489;-1;-105;103;-1;-105;118;-1;-102;391;-1;-104;452;-1;-105
16238338;63431;30843;310260;-1;2;-69;-8.2;-103;-19;88;LTE;30.43031;-97.76070;46;259;-8.2;2019/09/10;17:37:31;16238338;30843;-106;489;-1;-105;103;-1;-105;118;-1;-102;391;-1;-104;452;-1;-105
16238338;63431;30843;310260;-1;2;-69;-8.2;-103;-19;88;LTE;30.43037;-97.76082;44;259;-8.2;2019/09/10;17:37:32;16238338;30843;-106;489;-1;-105;103;-1;-105;118;-1;-102;391;-1;-104;452;-1;-105
16238338;63431;30843;310260;-1;2;-77;-8.2;-103;-17;88;LTE;30.43042;-97.76092;44;260;-8.2;2019/09/10;17:37:33;17015043;30841;-104;489;-1;-105;491;-1;-108;452;-1;-108;391;-1;-107;503;-1;-106
17015043;66465;30841;310260;-1;3;-77;-8.2;-103;-17;88;LTE;30.43048;-97.76103;44;261;-8.2;2019/09/10;17:37:34;17015043;30841;-104;489;-1;-105;491;-1;-108;452;-1;-108;391;-1;-107;503;-1;-106
17015043;66465;30841;310260;-1;3;-77;-8.2;-103;-17;88;LTE;30.43054;-97.76114;41;261;-8.2;2019/09/10;17:37:35;16238338;30843;-104;489;-1;-106;503;-1;-103;118;-1;-104;345;-1;-109;391;-1;-105
16238338;63431;30841;310260;-1;2;-77;-8.2;-103;-17;88;LTE;30.43059;-97.76124;39;261;-8.2;2019/09/10;17:37:36;16238338;30843;-104;489;-1;-106;503;-1;-103;118;-1;-104;345;-1;-109;391;-1;-105
16238338;63431;30843;310260;-1;2;-67;-11.6;-108;-20;88;LTE;30.43064;-97.76134;41;261;-11.6;2019/09/10;17:37:37;16238338;30843;-104;489;-1;-106;503;-1;-103;118;-1;-104;345;-1;-109;391;-1;-105
16238338;63431;30843;310260;-1;2;-67;-11.6;-108;-20;88;LTE;30.43070;-97.76145;43;262;-11.6;2019/09/10;17:37:38;16238341;30843;-108;452;-1;-110;503;-1;-104;391;-1;-107;118;-1;-109
16238341;63431;30843;310260;-1;5;-79;-11.6;-108;-20;88;LTE;30.43075;-97.76156;44;261;-11.6;2019/09/10;17:37:39;16238341;30843;-108;452;-1;-110;503;-1;-104;391;-1;-107;118;-1;-109
16238341;63431;30843;310260;-1;5;-67;-7.6;-108;-20;88;LTE;30.43080;-97.76167;43;261;-7.6;2019/09/10;17:37:40;16238341;30843;-108;452;-1;-110;503;-1;-104;391;-1;-107;118;-1;-109
16238341;63431;30843;310260;-1;5;-67;-7.6;-108;-20;88;LTE;30.43086;-97.76178;42;261;-7.6;2019/09/10;17:37:41;16238341;30843;-105;491;-1;-105;503;-1;-105;391;-1;-105
16238341;63431;30843;310260;-1;5;-67;-7.6;-108;-20;88;LTE;30.43090;-97.76188;42;261;-7.6;2019/09/10;17:37:42;16238341;30843;-105;491;-1;-105;503;-1;-105;391;-1;-105
16238341;63431;30843;310260;-1;5;-67;-7.6;-108;-20;88;LTE;30.43095;-97.76198;44;261;-7.6;2019/09/10;17:37:43;16238341;30843;-105;491;-1;-105;503;-1;-105;391;-1;-105
16238341;63431;30843;310260;-1;5;-67;-7.6;-108;-20;88;LTE;30.43101;-97.76210;46;260;-7.6;2019/09/10;17:37:44;16238341;30843;-98;491;-1;-102;391;-1;-103;87;-1;-101
16238341;63431;30843;310260;-1;5;-67;-7.6;-108;-20;88;LTE;30.43107;-97.76222;50;259;-7.6;2019/09/10;17:37:45;16238341;30843;-98;491;-1;-102;391;-1;-103;87;-1;-101
16238341;63431;30843;310260;-1;5;-67;-2.2;-104;-20;88;LTE;30.43113;-97.76234;52;259;-2.2;2019/09/10;17:37:46;16238341;30843;-98;491;-1;-102;391;-1;-103;87;-1;-101
16238341;63431;30843;310260;-1;5;-67;-2.2;-104;-20;88;LTE;30.43120;-97.76248;52;260;-2.2;2019/09/10;17:37:47;16238341;30843;-101;491;-1;-104;87;-1;-102;452;-1;-100;214;-1;-103
16238341;63431;30843;310260;-1;5;-67;-3.4;-100;-18;88;LTE;30.43126;-97.76262;55;261;-3.4;2019/09/10;17:37:48;16238341;30843;-101;491;-1;-104;87;-1;-102;452;-1;-100;214;-1;-103
16238341;63431;30843;310260;-1;5;-67;-3.4;-100;-18;88;LTE;30.43133;-97.76276;55;261;-3.4;2019/09/10;17:37:49;16238341;30843;-101;491;-1;-104;87;-1;-102;452;-1;-100;214;-1;-103
16238341;63431;30843;310260;-1;5;-67;-3.4;-100;-18;88;LTE;30.43140;-97.76290;53;261;-3.4;2019/09/10;17:37:50;16238341;30843;-99
16238341;63431;30843;310260;-1;5;-67;-3.4;-100;-18;88;LTE;30.43147;-97.76303;54;261;-3.4;2019/09/10;17:37:51;16238341;30843;-99
16238341;63431;30843;310260;-1;5;-67;0.8;-100;-18;88;LTE;30.43153;-97.76317;54;261;0.8;2019/09/10;17:37:52;16238341;30843;-99
16238341;63431;30843;310260;-1;5;-67;0.8;-100;-18;88;LTE;30.43159;-97.76331;54;261;0.8;2019/09/10;17:37:53;16238341;30843;-101
16238341;63431;30843;310260;-1;5;-67;0.8;-100;-18;88;LTE;30.43166;-97.76344;55;261;0.8;2019/09/10;17:37:54;16238341;30843;-101
16238341;63431;30843;310260;-1;5;-67;0.8;-100;-18;88;LTE;30.43174;-97.76357;56;260;0.8;2019/09/10;17:37:55;16238341;30843;-101
16238341;63431;30843;310260;-1;5;-67;0.8;-100;-18;88;LTE;30.43181;-97.76370;57;259;0.8;2019/09/10;17:37:56;16238341;30843;-98
16238341;63431;30843;310260;-1;5;-67;0.8;-100;-18;88;LTE;30.43188;-97.76385;57;259;0.8;2019/09/10;17:37:57;16238341;30843;-98
16238341;63431;30843;310260;-1;5;-67;0.8;-100;-18;88;LTE;30.43196;-97.76400;59;259;0.8;2019/09/10;17:37:58;16238341;30843;-98
16238341;63431;30843;310260;-1;5;-67;0.8;-100;-18;88;LTE;30.43203;-97.76416;61;259;0.8;2019/09/10;17:37:59;16238341;30843;-97;491;-1;-99;87;-1;-103;391;-1;-101;452;-1;-100
16238341;63431;30843;310260;-1;5;-67;0.8;-100;-18;88;LTE;30.43210;-97.76431;60;259;0.8;2019/09/10;17:38:00;16238341;30843;-97;491;-1;-99;87;-1;-103;391;-1;-101;452;-1;-100
16238341;63431;30843;310260;-1;5;-63;4.4;-96;-16;88;LTE;30.43218;-97.76445;59;259;4.4;2019/09/10;17:38:01;16238341;30843;-97;491;-1;-99;87;-1;-103;391;-1;-101;452;-1;-100
16238341;63431;30843;310260;-1;5;-63;4.4;-96;-16;88;LTE;30.43226;-97.76460;61;258;4.4;2019/09/10;17:38:02;16238341;30843;-91;87;-1;-99;491;-1;-95
16238341;63431;30843;310260;-1;5;-63;4.4;-96;-16;88;LTE;30.43234;-97.76475;62;259;4.4;2019/09/10;17:38:03;16238341;30843;-91;87;-1;-99;491;-1;-95
16238341;63431;30843;310260;-1;5;-57;8.6;-90;-16;88;LTE;30.43241;-97.76491;62;259;8.6;2019/09/10;17:38:04;16238341;30843;-91;87;-1;-99;491;-1;-95
16238341;63431;30843;310260;-1;5;-57;8.6;-90;-16;88;LTE;30.43249;-97.76507;63;258;8.6;2019/09/10;17:38:05;16238341;30843;-92;347;-1;-99;491;-1;-100
16238341;63431;30843;310260;-1;5;-57;8.6;-90;-16;88;LTE;30.43257;-97.76524;65;258;8.6;2019/09/10;17:38:06;16238341;30843;-92;347;-1;-99;491;-1;-100
16238341;63431;30843;310260;-1;5;-57;8.2;-90;-14;88;LTE;30.43266;-97.76541;66;259;8.2;2019/09/10;17:38:07;16238341;30843;-92;347;-1;-99;491;-1;-100
16238341;63431;30843;310260;-1;5;-57;8.2;-90;-14;88;LTE;30.43274;-97.76557;65;259;8.2;2019/09/10;17:38:08;16238341;30843;-88
16238341;63431;30843;310260;-1;5;-57;8.2;-90;-14;88;LTE;30.43282;-97.76574;66;259;8.2;2019/09/10;17:38:09;16238341;30843;-88
16238341;63431;30843;310260;-1;5;-57;8.8;-90;-16;88;LTE;30.43289;-97.76590;65;258;8.8;2019/09/10;17:38:10;16238341;30843;-88
16238341;63431;30843;310260;-1;5;-57;8.8;-90;-16;88;LTE;30.43296;-97.76606;65;258;8.8;2019/09/10;17:38:11;16238341;30843;-84
16238341;63431;30843;310260;-1;5;-57;8.8;-90;-16;88;LTE;30.43305;-97.76622;65;257;8.8;2019/09/10;17:38:12;16238341;30843;-84
16238341;63431;30843;310260;-1;5;-57;8.8;-90;-16;88;LTE;30.43314;-97.76639;65;258;8.8;2019/09/10;17:38:13;16238341;30843;-84
16238341;63431;30843;310260;-1;5;-57;8.8;-90;-16;88;LTE;30.43322;-97.76655;65;258;8.8;2019/09/10;17:38:14;16238341;30843;-84
16238341;63431;30843;310260;-1;5;-57;8.8;-90;-16;88;LTE;30.43330;-97.76671;62;257;8.8;2019/09/10;17:38:15;16238341;30843;-84
16238341;63431;30843;310260;-1;5;-57;8.8;-90;-16;88;LTE;30.43339;-97.76686;62;257;8.8;2019/09/10;17:38:16;16238341;30843;-84
16238341;63431;30843;310260;-1;5;-57;8.8;-90;-16;88;LTE;30.43347;-97.76701;60;257;8.8;2019/09/10;17:38:17;16238341;30843;-81
16238341;63431;30843;310260;-1;5;-57;8.8;-90;-16;88;LTE;30.43355;-97.76715;60;257;8.8;2019/09/10;17:38:18;16238341;30843;-81
16238341;63431;30843;310260;-1;5;-51;15.0;-85;-16;88;LTE;30.43363;-97.76729;58;257;15.0;2019/09/10;17:38:19;16238341;30843;-81
16238341;63431;30843;310260;-1;5;-51;15.0;-85;-16;88;LTE;30.43371;-97.76742;58;256;15.0;2019/09/10;17:38:20;16238341;30843;-90
16238341;63431;30843;310260;-1;5;-51;15.0;-85;-16;88;LTE;30.43379;-97.76757;57;255;15.0;2019/09/10;17:38:21;16238341;30843;-90
16238341;63431;30843;310260;-1;5;-59;2.2;-91;-16;88;LTE;30.43386;-97.76771;57;256;2.2;2019/09/10;17:38:22;16238341;30843;-90
16238341;63431;30843;310260;-1;5;-59;2.2;-91;-16;88;LTE;30.43393;-97.76786;56;256;2.2;2019/09/10;17:38:23;16238341;30843;-76
16238341;63431;30843;310260;-1;5;-59;2.2;-91;-16;88;LTE;30.43400;-97.76800;55;256;2.2;2019/09/10;17:38:24;16238341;30843;-76
16238341;63431;30843;310260;-1;5;-51;14.4;-77;-12;88;LTE;30.43407;-97.76814;54;256;14.4;2019/09/10;17:38:25;16238341;30843;-76
16238341;63431;30843;310260;-1;5;-51;14.4;-77;-12;88;LTE;30.43413;-97.76827;45;257;14.4;2019/09/10;17:38:26;16238341;30843;-75;391;-1;-89;347;-1;-93;435;-1;-77;245;-1;-89
16238341;63431;30843;310260;-1;5;-51;14.4;-77;-12;88;LTE;30.43418;-97.76837;38;257;14.4;2019/09/10;17:38:27;16238341;30843;-75;391;-1;-89;347;-1;-93;435;-1;-77;245;-1;-89
16238341;63431;30843;310260;-1;5;-51;7.6;-77;-12;88;LTE;30.43424;-97.76845;33;258;7.6;2019/09/10;17:38:28;16238341;30843;-75;391;-1;-89;347;-1;-93;435;-1;-77;245;-1;-89
16238341;63431;30843;310260;-1;5;-51;7.6;-77;-12;88;LTE;30.43430;-97.76851;32;258;7.6;2019/09/10;17:38:29;16238341;30843;-63;391;-1;-84;401;-1;-81;435;-1;-68;245;-1;-80
16238341;63431;30843;310260;-1;5;-51;7.6;-77;-12;88;LTE;30.43437;-97.76854;31;259;7.6;2019/09/10;17:38:30;16238341;30843;-63;391;-1;-84;401;-1;-81;435;-1;-68;245;-1;-80
16238341;63431;30843;310260;-1;5;-51;13.6;-68;-12;88;LTE;30.43444;-97.76855;30;259;13.6;2019/09/10;17:38:31;16238341;30843;-63;391;-1;-84;401;-1;-81;435;-1;-68;245;-1;-80
16238341;63431;30843;310260;-1;5;-51;13.6;-68;-12;88;LTE;30.43452;-97.76854;30;259;13.6;2019/09/10;17:38:32;16238341;30843;-71
16238341;63431;30843;310260;-1;5;-51;13.6;-68;-12;88;LTE;30.43458;-97.76849;30;259;13.6;2019/09/10;17:38:33;16238341;30843;-71
16238341;63431;30843;310260;-1;5;-51;17.2;-72;-15;88;LTE;30.43463;-97.76842;31;258;17.2;2019/09/10;17:38:34;16238341;30843;-71
16238341;63431;30843;310260;-1;5;-51;17.2;-72;-15;88;LTE;30.43468;-97.76835;32;258;17.2;2019/09/10;17:38:35;16238341;30843;-70;401;-1;-72
16238341;63431;30843;310260;-1;5;-51;17.2;-72;-15;88;LTE;30.43472;-97.76826;35;259;17.2;2019/09/10;17:38:36;16238341;30843;-70;401;-1;-72
16238341;63431;30843;310260;-1;5;-51;14.8;-65;-15;88;LTE;30.43476;-97.76817;38;258;14.8;2019/09/10;17:38:37;16238341;30843;-70;401;-1;-72
16238341;63431;30843;310260;-1;5;-51;14.8;-65;-15;88;LTE;30.43481;-97.76806;42;257;14.8;2019/09/10;17:38:38;16238341;30843;-67;401;-1;-75
16238341;63431;30843;310260;-1;5;-51;5.2;-65;-13;88;LTE;30.43484;-97.76794;44;257;5.2;2019/09/10;17:38:39;16238341;30843;-67;401;-1;-75
16238341;63431;30843;310260;-1;5;-51;5.2;-65;-13;88;LTE;30.43489;-97.76782;48;257;5.2;2019/09/10;17:38:40;16238341;30843;-67;401;-1;-75
16238341;63431;30843;310260;-1;5;-51;5.2;-65;-13;88;LTE;30.43493;-97.76768;51;257;5.2;2019/09/10;17:38:41;16238341;30843;-64
16238341;63431;30843;310260;-1;5;-51;5.2;-65;-13;88;LTE;30.43498;-97.76754;52;257;5.2;2019/09/10;17:38:42;16238341;30843;-64
16238341;63431;30843;310260;-1;5;-51;5.2;-65;-13;88;LTE;30.43503;-97.76739;55;257;5.2;2019/09/10;17:38:43;16238341;30843;-64
16238341;63431;30843;310260;-1;5;-51;9.0;-65;-17;88;LTE;30.43508;-97.76724;55;257;9.0;2019/09/10;17:38:44;16238341;30843;-68
16238341;63431;30843;310260;-1;5;-51;9.0;-65;-17;88;LTE;30.43513;-97.76709;56;257;9.0;2019/09/10;17:38:45;16238341;30843;-68
16238341;63431;30843;310260;-1;5;-51;18.4;-69;-12;88;LTE;30.43519;-97.76695;57;256;18.4;2019/09/10;17:38:46;16238341;30843;-68
16238341;63431;30843;310260;-1;5;-51;18.4;-69;-12;88;LTE;30.43524;-97.76679;58;255;18.4;2019/09/10;17:38:47;16238341;30843;-65
16238341;63431;30843;310260;-1;5;-51;18.4;-69;-12;88;LTE;30.43524;-97.76679;58;255;18.4;2019/09/10;17:38:48;16238341;30843;-65
16238341;63431;30843;310260;-1;5;-51;12.0;-69;-12;88;LTE;30.43524;-97.76679;58;255;12.0;2019/09/10;17:38:49;16238341;30843;-65
16238341;63431;30843;310260;-1;5;-51;12.0;-69;-12;88;LTE;30.43524;-97.76679;58;255;12.0;2019/09/10;17:38:50;16238341;30843;-77
16238341;63431;30843;310260;-1;5;-51;12.0;-69;-12;88;LTE;30.43529;-97.76663;58;255;12.0;2019/09/10;17:38:51;16238341;30843;-77
16238341;63431;30843;310260;-1;5;-51;12.0;-69;-12;88;LTE;30.43551;-97.76596;62;254;12.0;2019/09/10;17:38:52;16238341;30843;-77
16238341;63431;30843;310260;-1;5;-51;9.0;-80;-15;88;LTE;30.43557;-97.76579;62;254;9.0;2019/09/10;17:38:53;16238341;30843;-67;401;-1;-76
16238341;63431;30843;310260;-1;5;-51;9.0;-80;-15;88;LTE;30.43563;-97.76563;61;254;9.0;2019/09/10;17:38:54;16238341;30843;-67;401;-1;-76
16238341;63431;30843;310260;-1;5;-51;9.0;-80;-15;88;LTE;30.43568;-97.76547;60;253;9.0;2019/09/10;17:38:55;16238341;30843;-67;401;-1;-76
16238341;63431;30843;310260;-1;5;-51;18.6;-66;-12;88;LTE;30.43574;-97.76531;60;252;18.6;2019/09/10;17:38:56;16238341;30843;-76;491;-1;-84
16238341;63431;30843;310260;-1;5;-51;18.6;-66;-12;88;LTE;30.43580;-97.76514;61;253;18.6;2019/09/10;17:38:57;16238341;30843;-76;491;-1;-84
16238341;63431;30843;310260;-1;5;-55;1.2;-85;-16;88;LTE;30.43585;-97.76499;61;253;1.2;2019/09/10;17:38:58;16238341;30843;-76;491;-1;-84
16238341;63431;30843;310260;-1;5;-55;7.0;-85;-11;88;LTE;30.43590;-97.76482;62;252;7.0;2019/09/10;17:38:59;16238341;30843;-88;491;-1;-84
16238341;63431;30843;310260;-1;5;-55;7.0;-85;-11;88;LTE;30.43596;-97.76465;62;253;7.0;2019/09/10;17:39:00;16238341;30843;-88;491;-1;-84
16238338;63431;30843;310260;-1;2;-55;7.0;-85;-11;88;LTE;30.43601;-97.76448;61;253;7.0;2019/09/10;17:39:01;16238341;30843;-88;491;-1;-84
16238338;63431;30843;310260;-1;2;-55;-2.4;-85;-17;88;LTE;30.43607;-97.76431;63;253;-2.4;2019/09/10;17:39:02;16238338;30843;-81;489;-1;-83
16238338;63431;30843;310260;-1;2;-55;-2.4;-85;-17;88;LTE;30.43613;-97.76414;63;253;-2.4;2019/09/10;17:39:03;16238338;30843;-81;489;-1;-83
16238338;63431;30843;310260;-1;2;-55;-2.4;-85;-17;88;LTE;30.43618;-97.76398;65;254;-2.4;2019/09/10;17:39:04;16238338;30843;-81;489;-1;-83
16238338;63431;30843;310260;-1;2;-51;-2.0;-85;-13;88;LTE;30.43625;-97.76380;65;253;-2.0;2019/09/10;17:39:05;16238338;30843;-71;489;-1;-82
16238338;63431;30843;310260;-1;2;-51;-2.0;-85;-13;88;LTE;30.43631;-97.76363;65;253;-2.0;2019/09/10;17:39:06;16238338;30843;-71;489;-1;-82
16238338;63431;30843;310260;-1;2;-51;7.8;-70;-10;88;LTE;30.43637;-97.76346;66;253;7.8;2019/09/10;17:39:07;16238338;30843;-71;489;-1;-82
16238338;63431;30843;310260;-1;2;-51;7.8;-70;-10;88;LTE;30.43643;-97.76328;67;253;7.8;2019/09/10;17:39:08;16238338;30843;-74;489;-1;-82
16238338;63431;30843;310260;-1;2;-51;7.8;-70;-10;88;LTE;30.43649;-97.76309;67;253;7.8;2019/09/10;17:39:09;16238338;30843;-74;489;-1;-82
16238338;63431;30843;310260;-1;2;-51;11.2;-75;-13;88;LTE;30.43655;-97.76291;68;252;11.2;2019/09/10;17:39:10;16238338;30843;-74;489;-1;-82
16238338;63431;30843;310260;-1;2;-51;11.2;-75;-13;88;LTE;30.43662;-97.76273;68;251;11.2;2019/09/10;17:39:11;16238338;30843;-71;345;-1;-85;87;-1;-76
16238338;63431;30843;310260;-1;2;-51;11.2;-75;-13;88;LTE;30.43668;-97.76254;68;251;11.2;2019/09/10;17:39:12;16238338;30843;-71;345;-1;-85;87;-1;-76
16238338;63431;30843;310260;-1;2;-51;11.2;-75;-13;88;LTE;30.43673;-97.76235;68;251;11.2;2019/09/10;17:39:13;16238338;30843;-71;345;-1;-85;87;-1;-76
16238338;63431;30843;310260;-1;2;-51;5.2;-71;-15;88;LTE;30.43679;-97.76217;68;251;5.2;2019/09/10;17:39:14;16238338;30843;-69;87;-1;-67
16238338;63431;30843;310260;-1;2;-51;5.2;-71;-15;88;LTE;30.43686;-97.76199;67;251;5.2;2019/09/10;17:39:15;16238338;30843;-69;87;-1;-67
16238338;63431;30843;310260;-1;2;-51;5.2;-71;-15;88;LTE;30.43693;-97.76181;66;250;5.2;2019/09/10;17:39:16;16238338;30843;-69;87;-1;-67
16238340;63431;30843;310260;-1;4;-51;-5.4;-71;-20;88;LTE;30.43698;-97.76163;66;250;-5.4;2019/09/10;17:39:17;16238340;30843;-66;491;-1;-69
16238340;63431;30843;310260;-1;4;-51;-5.4;-71;-20;88;LTE;30.43703;-97.76144;66;251;-5.4;2019/09/10;17:39:18;16238340;30843;-66;491;-1;-69
16238340;63431;30843;310260;-1;4;-51;-5.4;-66;-11;88;LTE;30.43709;-97.76127;65;250;-5.4;2019/09/10;17:39:19;16238340;30843;-66;491;-1;-69
16238340;63431;30843;310260;-1;4;-51;-5.4;-66;-11;88;LTE;30.43715;-97.76109;66;250;-5.4;2019/09/10;17:39:20;16238340;30843;-75;491;-1;-79
16238340;63431;30843;310260;-1;4;-51;-5.4;-66;-11;88;LTE;30.43721;-97.76091;64;250;-5.4;2019/09/10;17:39:21;16238340;30843;-75;491;-1;-79
16238340;63431;30843;310260;-1;4;-51;-5.4;-66;-11;88;LTE;30.43726;-97.76074;64;250;-5.4;2019/09/10;17:39:22;16238340;30843;-75;491;-1;-79
16238340;63431;30843;310260;-1;4;-51;14.8;-71;-13;88;LTE;30.43732;-97.76056;63;250;14.8;2019/09/10;17:39:23;16238340;30843;-73;491;-1;-82
16238340;63431;30843;310260;-1;4;-51;14.8;-71;-13;88;LTE;30.43738;-97.76039;63;250;14.8;2019/09/10;17:39:24;16238340;30843;-73;491;-1;-82
16238340;63431;30843;310260;-1;4;-51;14.8;-71;-13;88;LTE;30.43744;-97.76022;64;250;14.8;2019/09/10;17:39:25;16238340;30843;-73;491;-1;-82
16238340;63431;30843;310260;-1;4;-53;6.6;-82;-13;88;LTE;30.43750;-97.76005;63;250;6.6;2019/09/10;17:39:26;16238340;30843;-75
16238340;63431;30843;310260;-1;4;-53;6.6;-82;-13;88;LTE;30.43755;-97.75988;62;250;6.6;2019/09/10;17:39:27;16238340;30843;-75
16238340;63431;30843;310260;-1;4;-51;9.6;-76;-15;88;LTE;30.43760;-97.75971;57;251;9.6;2019/09/10;17:39:28;16238340;30843;-75
16238340;63431;30843;310260;-1;4;-51;9.6;-76;-15;88;LTE;30.43765;-97.75956;52;250;9.6;2019/09/10;17:39:29;16238340;30843;-76
16238340;63431;30843;310260;-1;4;-51;9.6;-76;-15;88;LTE;30.43769;-97.75942;47;250;9.6;2019/09/10;17:39:30;16238340;30843;-76
16238340;63431;30843;310260;-1;4;-51;9.6;-76;-15;88;LTE;30.43773;-97.75931;43;249;9.6;2019/09/10;17:39:31;16238340;30843;-76
16238340;63431;30843;310260;-1;4;-51;16.6;-72;-15;88;LTE;30.43777;-97.75920;39;249;16.6;2019/09/10;17:39:32;16238340;30843;-74
16238340;63431;30843;310260;-1;4;-51;16.6;-72;-15;88;LTE;30.43779;-97.75910;34;249;16.6;2019/09/10;17:39:33;16238340;30843;-74
16238340;63431;30843;310260;-1;4;-51;16.6;-72;-15;88;LTE;30.43783;-97.75902;30;249;16.6;2019/09/10;17:39:34;16238340;30843;-74
16238340;63431;30843;310260;-1;4;-51;16.6;-72;-15;88;LTE;30.43785;-97.75895;26;248;16.6;2019/09/10;17:39:35;16238340;30843;-79
16238340;63431;30843;310260;-1;4;-51;16.6;-72;-15;88;LTE;30.43787;-97.75889;21;249;16.6;2019/09/10;17:39:36;16238340;30843;-79
16238340;63431;30843;310260;-1;4;-51;16.6;-72;-15;88;LTE;30.43789;-97.75884;17;250;16.6;2019/09/10;17:39:37;16238340;30843;-79
16238340;63431;30843;310260;-1;4;-51;17.4;-79;-12;88;LTE;30.43790;-97.75881;13;250;17.4;2019/09/10;17:39:38;16238340;30843;-77
16238340;63431;30843;310260;-1;4;-51;17.4;-79;-12;88;LTE;30.43791;-97.75878;9;251;17.4;2019/09/10;17:39:39;16238340;30843;-77
16238340;63431;30843;310260;-1;4;-51;19.6;-74;-14;88;LTE;30.43791;-97.75875;6;251;19.6;2019/09/10;17:39:40;16238340;30843;-77
16238340;63431;30843;310260;-1;4;-51;19.6;-74;-14;88;LTE;30.43791;-97.75875;3;251;19.6;2019/09/10;17:39:41;16238340;30843;-75
16238340;63431;30843;310260;-1;4;-51;19.6;-74;-14;88;LTE;30.43792;-97.75875;0;252;19.6;2019/09/10;17:39:42;16238340;30843;-75
16238340;63431;30843;310260;-1;4;-51;19.6;-74;-14;88;LTE;30.43792;-97.75875;0;252;19.6;2019/09/10;17:39:43;16238340;30843;-75
16238340;63431;30843;310260;-1;4;-51;14.0;-74;-14;88;LTE;30.43792;-97.75875;0;252;14.0;2019/09/10;17:39:44;16238340;30843;-77
16238340;63431;30843;310260;-1;4;-51;14.0;-74;-14;88;LTE;30.43792;-97.75876;0;252;14.0;2019/09/10;17:39:45;16238340;30843;-77
16238340;63431;30843;310260;-1;4;-51;14.0;-74;-14;88;LTE;30.43793;-97.75876;1;253;14.0;2019/09/10;17:39:46;16238340;30843;-77
16238340;63431;30843;310260;-1;4;-51;12.6;-74;-14;88;LTE;30.43794;-97.75874;6;252;12.6;2019/09/10;17:39:47;16238340;30843;-75
16238340;63431;30843;310260;-1;4;-51;12.6;-74;-14;88;LTE;30.43794;-97.75870;14;253;12.6;2019/09/10;17:39:48;16238340;30843;-75
16238340;63431;30843;310260;-1;4;-51;-0.6;-78;-16;88;LTE;30.43795;-97.75864;18;253;-0.6;2019/09/10;17:39:49;16238340;30843;-75
16238340;63431;30843;310260;-1;4;-51;-0.6;-78;-16;88;LTE;30.43797;-97.75858;21;252;-0.6;2019/09/10;17:39:50;16238340;30843;-70;400;-1;-83;491;-1;-79
16238340;63431;30843;310260;-1;4;-51;-0.6;-78;-16;88;LTE;30.43800;-97.75851;26;251;-0.6;2019/09/10;17:39:51;16238340;30843;-70;400;-1;-83;491;-1;-79
16238340;63431;30843;310260;-1;4;-51;-0.6;-78;-16;88;LTE;30.43802;-97.75844;32;250;-0.6;2019/09/10;17:39:52;16238340;30843;-70;400;-1;-83;491;-1;-79
16238340;63431;30843;310260;-1;4;-51;13.0;-72;-16;88;LTE;30.43805;-97.75835;34;250;13.0;2019/09/10;17:39:53;16238340;30843;-74;400;-1;-81;491;-1;-78
16238340;63431;30843;310260;-1;4;-51;13.0;-72;-16;88;LTE;30.43808;-97.75826;36;250;13.0;2019/09/10;17:39:54;16238340;30843;-74;400;-1;-81;491;-1;-78
16238340;63431;30843;310260;-1;4;-51;13.0;-72;-16;88;LTE;30.43812;-97.75815;38;250;13.0;2019/09/10;17:39:55;16238340;30843;-74;400;-1;-81;491;-1;-78
16238340;63431;30843;310260;-1;4;-51;9.4;-72;-14;88;LTE;30.43815;-97.75804;41;250;9.4;2019/09/10;17:39:56;16238340;30843;-72
16238340;63431;30843;310260;-1;4;-51;9.4;-72;-14;88;LTE;30.43818;-97.75793;43;250;9.4;2019/09/10;17:39:57;16238340;30843;-72
16238340;63431;30843;310260;-1;4;-51;9.4;-72;-14;88;LTE;30.43822;-97.75780;46;250;9.4;2019/09/10;17:39:58;16238340;30843;-72
16238340;63431;30843;310260;-1;4;-51;9.4;-72;-14;88;LTE;30.43826;-97.75767;49;249;9.4;2019/09/10;17:39:59;16238340;30843;-78
16238340;63431;30843;310260;-1;4;-51;9.4;-72;-14;88;LTE;30.43831;-97.75754;50;249;9.4;2019/09/10;17:40:00;16238340;30843;-78
16238340;63431;30843;310260;-1;4;-51;9.4;-72;-14;88;LTE;30.43835;-97.75740;51;250;9.4;2019/09/10;17:40:01;16238340;30843;-78
16238340;63431;30843;310260;-1;4;-51;16.2;-79;-16;88;LTE;30.43840;-97.75727;49;250;16.2;2019/09/10;17:40:02;16238340;30843;-86
16238340;63431;30843;310260;-1;4;-51;16.2;-79;-16;88;LTE;30.43844;-97.75714;50;250;16.2;2019/09/10;17:40:03;16238340;30843;-86
16238340;63431;30843;310260;-1;4;-51;16.2;-79;-16;88;LTE;30.43848;-97.75700;52;250;16.2;2019/09/10;17:40:04;16238340;30843;-86
16238340;63431;30843;310260;-1;4;-55;6.4;-87;-16;88;LTE;30.43853;-97.75686;54;250;6.4;2019/09/10;17:40:05;16238340;30843;-79
16238340;63431;30843;310260;-1;4;-55;6.4;-87;-16;88;LTE;30.43858;-97.75671;56;250;6.4;2019/09/10;17:40:06;16238340;30843;-79
16238340;63431;30843;310260;-1;4;-55;6.4;-87;-16;88;LTE;30.43863;-97.75656;56;250;6.4;2019/09/10;17:40:07;16238340;30843;-79
16238340;63431;30843;310260;-1;4;-51;17.6;-81;-16;88;LTE;30.43868;-97.75641;56;250;17.6;2019/09/10;17:40:08;16238340;30843;-86
16238340;63431;30843;310260;-1;4;-51;17.6;-81;-16;88;LTE;30.43872;-97.75625;58;250;17.6;2019/09/10;17:40:09;16238340;30843;-86
16238340;63431;30843;310260;-1;4;-59;11.6;-87;-11;88;LTE;30.43877;-97.75608;59;250;11.6;2019/09/10;17:40:10;16238340;30843;-86
16238340;63431;30843;310260;-1;4;-59;11.6;-87;-11;88;LTE;30.43881;-97.75591;61;249;11.6;2019/09/10;17:40:11;16238340;30843;-86;452;-1;-93;491;-1;-95;371;-1;-91
16238340;63431;30843;310260;-1;4;-59;11.6;-87;-11;88;LTE;30.43886;-97.75574;62;248;11.6;2019/09/10;17:40:12;16238340;30843;-86;452;-1;-93;491;-1;-95;371;-1;-91
16238340;63431;30843;310260;-1;4;-59;11.6;-87;-11;88;LTE;30.43891;-97.75557;64;247;11.6;2019/09/10;17:40:13;16238340;30843;-86;452;-1;-93;491;-1;-95;371;-1;-91
16238340;63431;30843;310260;-1;4;-59;7.0;-87;-14;88;LTE;30.43896;-97.75539;64;247;7.0;2019/09/10;17:40:14;16238340;30843;-85
16238340;63431;30843;310260;-1;4;-59;7.0;-87;-14;88;LTE;30.43901;-97.75521;65;247;7.0;2019/09/10;17:40:15;16238340;30843;-85
16238340;63431;30843;310260;-1;4;-59;7.0;-87;-14;88;LTE;30.43907;-97.75504;66;247;7.0;2019/09/10;17:40:16;16238340;30843;-89;491;-1;-97
16238340;63431;30843;310260;-1;4;-59;5.8;-87;-11;88;LTE;30.43912;-97.75486;65;247;5.8;2019/09/10;17:40:17;16238340;30843;-89;491;-1;-97
16238340;63431;30843;310260;-1;4;-59;5.8;-87;-11;88;LTE;30.43917;-97.75469;65;248;5.8;2019/09/10;17:40:18;16238340;30843;-89;491;-1;-97
16238340;63431;30843;310260;-1;4;-59;4.6;-92;-16;88;LTE;30.43922;-97.75451;64;249;4.6;2019/09/10;17:40:19;16238340;30843;-84;491;-1;-92
16238340;63431;30843;310260;-1;4;-59;4.6;-92;-16;88;LTE;30.43927;-97.75432;63;251;4.6;2019/09/10;17:40:20;16238340;30843;-84;491;-1;-92
16238340;63431;30843;310260;-1;4;-53;9.2;-85;-13;88;LTE;30.43932;-97.75415;61;250;9.2;2019/09/10;17:40:21;16238340;30843;-84;491;-1;-92
16238340;63431;30843;310260;-1;4;-53;9.2;-85;-13;88;LTE;30.43938;-97.75399;60;250;9.2;2019/09/10;17:40:22;16238340;30843;-89;491;-1;-93
16238340;63431;30843;310260;-1;4;-53;9.2;-85;-13;88;LTE;30.43944;-97.75382;60;250;9.2;2019/09/10;17:40:23;16238340;30843;-89;491;-1;-93
16238340;63431;30843;310260;-1;4;-53;9.2;-85;-13;88;LTE;30.43949;-97.75367;60;251;9.2;2019/09/10;17:40:24;16238340;30843;-89;491;-1;-93
16238340;63431;30843;310260;-1;4;-53;9.2;-85;-13;88;LTE;30.43955;-97.75351;61;250;9.2;2019/09/10;17:40:25;16238340;30843;-87;491;-1;-94
16238340;63431;30843;310260;-1;4;-59;4.8;-91;-13;88;LTE;30.43960;-97.75335;60;250;4.8;2019/09/10;17:40:26;16238340;30843;-87;491;-1;-94
16238340;63431;30843;310260;-1;4;-59;4.8;-91;-13;88;LTE;30.43967;-97.75319;60;249;4.8;2019/09/10;17:40:27;16238340;30843;-87;491;-1;-94
16238340;63431;30843;310260;-1;4;-59;4.8;-91;-13;88;LTE;30.43973;-97.75305;58;249;4.8;2019/09/10;17:40:28;16238340;30843;-91;491;-1;-96
16238340;63431;30843;310260;-1;4;-59;4.8;-91;-13;88;LTE;30.43979;-97.75290;58;249;4.8;2019/09/10;17:40:29;16238340;30843;-91;491;-1;-96
16238340;63431;30843;310260;-1;4;-59;5.8;-91;-16;88;LTE;30.43985;-97.75274;55;248;5.8;2019/09/10;17:40:30;16238340;30843;-91;491;-1;-96
16238340;63431;30843;310260;-1;4;-59;5.8;-91;-16;88;LTE;30.43991;-97.75260;54;248;5.8;2019/09/10;17:40:31;16238340;30843;-94;491;-1;-101
16238340;63431;30843;310260;-1;4;-59;5.8;-91;-16;88;LTE;30.43996;-97.75246;53;249;5.8;2019/09/10;17:40:32;16238340;30843;-94;491;-1;-101
16238340;63431;30843;310260;-1;4;-59;5.8;-91;-16;88;LTE;30.44001;-97.75233;51;248;5.8;2019/09/10;17:40:33;16238340;30843;-94;491;-1;-101
16238340;63431;30843;310260;-1;4;-59;5.8;-91;-16;88;LTE;30.44007;-97.75219;52;248;5.8;2019/09/10;17:40:34;16238340;30843;-93;491;-1;-97
16238340;63431;30843;310260;-1;4;-59;5.8;-91;-16;88;LTE;30.44012;-97.75206;51;248;5.8;2019/09/10;17:40:35;16238340;30843;-93;491;-1;-97
16238340;63431;30843;310260;-1;4;-59;5.8;-91;-16;88;LTE;30.44018;-97.75192;52;248;5.8;2019/09/10;17:40:36;16238340;30843;-93;491;-1;-97
16238340;63431;30843;310260;-1;4;-59;1.8;-95;-16;88;LTE;30.44023;-97.75179;51;248;1.8;2019/09/10;17:40:37;16238340;30843;-94;491;-1;-100
16238340;63431;30843;310260;-1;4;-59;1.8;-95;-16;88;LTE;30.44029;-97.75166;50;247;1.8;2019/09/10;17:40:38;16238340;30843;-94;491;-1;-100
16238340;63431;30843;310260;-1;4;-59;1.8;-95;-16;88;LTE;30.44035;-97.75153;50;247;1.8;2019/09/10;17:40:39;16238340;30843;-94;491;-1;-100
16238340;63431;30843;310260;-1;4;-69;1.6;-100;-16;88;LTE;30.44040;-97.75141;48;246;1.6;2019/09/10;17:40:40;16238340;30843;-96;214;-1;-104;452;-1;-103
16238340;63431;30843;310260;-1;4;-69;1.6;-100;-16;88;LTE;30.44045;-97.75128;48;246;1.6;2019/09/10;17:40:41;16238340;30843;-96;214;-1;-104;452;-1;-103
16238340;63431;30843;310260;-1;4;-69;1.6;-100;-16;88;LTE;30.44050;-97.75115;47;246;1.6;2019/09/10;17:40:42;16238340;30843;-96;214;-1;-104;452;-1;-103
16238340;63431;30843;310260;-1;4;-69;1.6;-100;-16;88;LTE;30.44054;-97.75102;48;245;1.6;2019/09/10;17:40:43;16238340;30843;-100
16238340;63431;30843;310260;-1;4;-69;1.6;-100;-16;88;LTE;30.44059;-97.75089;47;245;1.6;2019/09/10;17:40:44;16238340;30843;-100
16238340;63431;30843;310260;-1;4;-69;1.6;-100;-16;88;LTE;30.44064;-97.75077;46;244;1.6;2019/09/10;17:40:45;16238340;30843;-100
16238340;63431;30843;310260;-1;4;-69;1.6;-100;-16;88;LTE;30.44069;-97.75065;46;244;1.6;2019/09/10;17:40:46;16238340;30843;-97;452;-1;-100
16238340;63431;30843;310260;-1;4;-69;1.6;-100;-16;88;LTE;30.44073;-97.75052;47;244;1.6;2019/09/10;17:40:47;16238340;30843;-97;452;-1;-100
16238340;63431;30843;310260;-1;4;-69;1.6;-100;-16;88;LTE;30.44078;-97.75039;49;244;1.6;2019/09/10;17:40:48;16238340;30843;-97;452;-1;-100
16238340;63431;30843;310260;-1;4;-69;1.6;-100;-16;88;LTE;30.44083;-97.75026;50;245;1.6;2019/09/10;17:40:49;16238340;30843;-103;452;-1;-102
16238340;63431;30843;310260;-1;4;-69;1.6;-100;-16;88;LTE;30.44089;-97.75013;52;244;1.6;2019/09/10;17:40:50;16238340;30843;-103;452;-1;-102
16238340;63431;30843;310260;-1;4;-69;1.6;-100;-16;88;LTE;30.44094;-97.74999;54;243;1.6;2019/09/10;17:40:51;16238340;30843;-103;452;-1;-102
16238340;63431;30843;310260;-1;4;-69;1.6;-100;-16;88;LTE;30.44101;-97.74985;56;243;1.6;2019/09/10;17:40:52;16238340;30843;-100;452;-1;-103
16238340;63431;30843;310260;-1;4;-69;2.2;-100;-14;88;LTE;30.44107;-97.74970;58;242;2.2;2019/09/10;17:40:53;16238340;30843;-100;452;-1;-103
16238340;63431;30843;310260;-1;4;-69;2.2;-100;-14;88;LTE;30.44113;-97.74955;59;243;2.2;2019/09/10;17:40:54;16238340;30843;-100;452;-1;-103
16238340;63431;30843;310260;-1;4;-69;2.2;-100;-14;88;LTE;30.44119;-97.74938;61;243;2.2;2019/09/10;17:40:55;16238340;30843;-99;452;-1;-105
16238340;63431;30843;310260;-1;4;-69;-0.4;-100;-17;88;LTE;30.44126;-97.74922;61;242;-0.4;2019/09/10;17:40:56;16238340;30843;-99;452;-1;-105
16238340;63431;30843;310260;-1;4;-69;-0.4;-100;-17;88;LTE;30.44132;-97.74906;62;243;-0.4;2019/09/10;17:40:57;16238340;30843;-99;452;-1;-105
16238340;63431;30843;310260;-1;4;-69;-0.4;-100;-17;88;LTE;30.44138;-97.74889;62;243;-0.4;2019/09/10;17:40:58;16238340;30843;-99;452;-1;-101
16238340;63431;30843;310260;-1;4;-63;6.4;-100;-15;88;LTE;30.44144;-97.74873;63;243;6.4;2019/09/10;17:40:59;16238340;30843;-99;452;-1;-101
16238340;63431;30843;310260;-1;4;-63;6.4;-100;-15;88;LTE;30.44151;-97.74856;64;242;6.4;2019/09/10;17:41:00;16238340;30843;-99;452;-1;-101
16238340;63431;30843;310260;-1;4;-63;3.8;-100;-17;88;LTE;30.44158;-97.74839;65;241;3.8;2019/09/10;17:41:01;16238340;30843;-98;452;-1;-102
16238340;63431;30843;310260;-1;4;-63;3.8;-100;-17;88;LTE;30.44164;-97.74822;63;241;3.8;2019/09/10;17:41:02;16238340;30843;-98;452;-1;-102
16238340;63431;30843;310260;-1;4;-63;3.8;-100;-17;88;LTE;30.44171;-97.74805;63;241;3.8;2019/09/10;17:41:03;16238340;30843;-98;452;-1;-102
16238340;63431;30843;310260;-1;4;-63;-0.4;-100;-17;88;LTE;30.44177;-97.74789;63;241;-0.4;2019/09/10;17:41:04;16238340;30843;-96;452;-1;-102
16238340;63431;30843;310260;-1;4;-63;-0.4;-100;-17;88;LTE;30.44183;-97.74772;62;241;-0.4;2019/09/10;17:41:05;16238340;30843;-96;452;-1;-102
16238340;63431;30843;310260;-1;4;-63;-0.4;-100;-17;88;LTE;30.44190;-97.74756;62;242;-0.4;2019/09/10;17:41:06;16238340;30843;-96;452;-1;-102
16238340;63431;30843;310260;-1;4;-63;-0.4;-100;-17;88;LTE;30.44196;-97.74740;61;241;-0.4;2019/09/10;17:41:07;16238340;30843;-93;452;-1;-99
16238340;63431;30843;310260;-1;4;-63;1.8;-100;-15;88;LTE;30.44202;-97.74724;60;241;1.8;2019/09/10;17:41:08;16238340;30843;-93;452;-1;-99
16238340;63431;30843;310260;-1;4;-63;1.8;-100;-15;88;LTE;30.44208;-97.74708;59;240;1.8;2019/09/10;17:41:09;16238340;30843;-93;452;-1;-99
16238340;63431;30843;310260;-1;4;-63;1.8;-100;-15;88;LTE;30.44214;-97.74693;57;240;1.8;2019/09/10;17:41:10;16238340;30843;-98;452;-1;-98
16238340;63431;30843;310260;-1;4;-63;4.2;-96;-17;88;LTE;30.44220;-97.74678;54;240;4.2;2019/09/10;17:41:11;16238340;30843;-98;452;-1;-98
16238340;63431;30843;310260;-1;4;-63;4.2;-96;-17;88;LTE;30.44225;-97.74664;50;240;4.2;2019/09/10;17:41:12;16238340;30843;-98;452;-1;-98
16238340;63431;30843;310260;-1;4;-63;-1.0;-102;-19;88;LTE;30.44230;-97.74651;51;239;-1.0;2019/09/10;17:41:13;16238340;30843;-96;452;-1;-107
16238340;63431;30843;310260;-1;4;-63;-1.0;-102;-19;88;LTE;30.44235;-97.74637;51;238;-1.0;2019/09/10;17:41:14;16238340;30843;-96;452;-1;-107
16238340;63431;30843;310260;-1;4;-63;-1.0;-102;-19;88;LTE;30.44240;-97.74624;51;238;-1.0;2019/09/10;17:41:15;16238340;30843;-96;452;-1;-107
16238340;63431;30843;310260;-1;4;-63;1.4;-97;-17;88;LTE;30.44245;-97.74610;52;237;1.4;2019/09/10;17:41:16;16238340;30843;-94
16238340;63431;30843;310260;-1;4;-63;1.4;-97;-17;88;LTE;30.44250;-97.74596;52;237;1.4;2019/09/10;17:41:17;16238340;30843;-94
16238340;63431;30843;310260;-1;4;-63;1.4;-97;-17;88;LTE;30.44255;-97.74582;51;237;1.4;2019/09/10;17:41:18;16238340;30843;-94
16238340;63431;30843;310260;-1;4;-63;1.4;-97;-17;88;LTE;30.44259;-97.74569;49;236;1.4;2019/09/10;17:41:19;16238340;30843;-103
16238340;63431;30843;310260;-1;4;-63;1.4;-97;-17;88;LTE;30.44264;-97.74556;44;236;1.4;2019/09/10;17:41:20;16238340;30843;-103
16238340;63431;30843;310260;-1;4;-63;1.4;-97;-17;88;LTE;30.44269;-97.74545;40;237;1.4;2019/09/10;17:41:21;16238340;30843;-103
16238340;63431;30843;310260;-1;4;-63;1.4;-97;-17;88;LTE;30.44273;-97.74535;33;236;1.4;2019/09/10;17:41:22;16238340;30843;-102;452;-1;-106;212;-1;-109
16238340;63431;30843;310260;-1;4;-63;-7.8;-108;-20;88;LTE;30.44275;-97.74528;24;236;-7.8;2019/09/10;17:41:23;16238340;30843;-102;452;-1;-106;212;-1;-109
16238340;63431;30843;310260;-1;4;-63;-7.8;-108;-20;88;LTE;30.44277;-97.74522;18;235;-7.8;2019/09/10;17:41:24;16238340;30843;-102;452;-1;-106;212;-1;-109
16238340;63431;30843;310260;-1;4;-63;-7.8;-108;-20;88;LTE;30.44279;-97.74518;14;235;-7.8;2019/09/10;17:41:25;16238340;30843;-99;281;-1;-105;452;-1;-104;214;-1;-105;212;-1;-103
16238340;63431;30843;310260;-1;4;-63;0.8;-101;-17;88;LTE;30.44280;-97.74515;10;235;0.8;2019/09/10;17:41:26;16238340;30843;-99;281;-1;-105;452;-1;-104;214;-1;-105;212;-1;-103
16238340;63431;30843;310260;-1;4;-63;0.8;-101;-17;88;LTE;30.44280;-97.74513;6;236;0.8;2019/09/10;17:41:27;16238340;30843;-99;281;-1;-105;452;-1;-104;214;-1;-105;212;-1;-103
16238340;63431;30843;310260;-1;4;-69;1.4;-101;-14;88;LTE;30.44281;-97.74512;3;236;1.4;2019/09/10;17:41:28;16238340;30843;-101;281;-1;-103;452;-1;-104;214;-1;-104;212;-1;-106;268;-1;-106
16238340;63431;30843;310260;-1;4;-69;1.4;-101;-14;88;LTE;30.44280;-97.74511;0;235;1.4;2019/09/10;17:41:29;16238340;30843;-101;281;-1;-103;452;-1;-104;214;-1;-104;212;-1;-106;268;-1;-106
16238340;63431;30843;310260;-1;4;-69;1.4;-101;-14;88;LTE;30.44280;-97.74511;0;235;1.4;2019/09/10;17:41:30;16238340;30843;-101;281;-1;-103;452;-1;-104;214;-1;-104;212;-1;-106;268;-1;-106
16238340;63431;30843;310260;-1;4;-69;-2.0;-101;-17;88;LTE;30.44279;-97.74511;1;236;-2.0;2019/09/10;17:41:31;16238340;30843;-101
16238340;63431;30843;310260;-1;4;-69;-2.0;-101;-17;88;LTE;30.44279;-97.74511;0;236;-2.0;2019/09/10;17:41:32;16238340;30843;-101
16238340;63431;30843;310260;-1;4;-69;-2.0;-101;-17;88;LTE;30.44279;-97.74511;0;236;-2.0;2019/09/10;17:41:33;16238340;30843;-101
16238340;63431;30843;310260;-1;4;-69;-2.0;-101;-17;88;LTE;30.44279;-97.74511;0;236;-2.0;2019/09/10;17:41:34;16238340;30843;-103
16238340;63431;30843;310260;-1;4;-69;-2.0;-101;-17;88;LTE;30.44279;-97.74512;0;236;-2.0;2019/09/10;17:41:35;16238340;30843;-103
16238340;63431;30843;310260;-1;4;-69;-2.0;-101;-17;88;LTE;30.44279;-97.74512;0;236;-2.0;2019/09/10;17:41:36;16238340;30843;-103
16238340;63431;30843;310260;-1;4;-69;-2.0;-101;-17;88;LTE;30.44278;-97.74512;0;237;-2.0;2019/09/10;17:41:37;16238340;30843;-101
16238340;63431;30843;310260;-1;4;-69;-2.0;-101;-17;88;LTE;30.44278;-97.74513;0;237;-2.0;2019/09/10;17:41:38;16238340;30843;-101
16238340;63431;30843;310260;-1;4;-69;-2.0;-101;-17;88;LTE;30.44278;-97.74512;0;237;-2.0;2019/09/10;17:41:39;16238340;30843;-101
16238340;63431;30843;310260;-1;4;-69;-2.0;-101;-17;88;LTE;30.44278;-97.74513;0;236;-2.0;2019/09/10;17:41:40;16238340;30843;-100
16238340;63431;30843;310260;-1;4;-69;-2.0;-101;-17;88;LTE;30.44278;-97.74512;0;235;-2.0;2019/09/10;17:41:41;16238340;30843;-100
16238340;63431;30843;310260;-1;4;-69;-2.0;-101;-17;88;LTE;30.44278;-97.74512;0;235;-2.0;2019/09/10;17:41:42;16238340;30843;-100
16238340;63431;30843;310260;-1;4;-69;-2.0;-101;-17;88;LTE;30.44278;-97.74512;0;235;-2.0;2019/09/10;17:41:43;16238340;30843;-102
16238340;63431;30843;310260;-1;4;-69;-2.0;-101;-17;88;LTE;30.44278;-97.74511;2;233;-2.0;2019/09/10;17:41:44;16238340;30843;-102
16238340;63431;30843;310260;-1;4;-69;-2.0;-101;-17;88;LTE;30.44278;-97.74510;4;233;-2.0;2019/09/10;17:41:45;16238340;30843;-102
16238340;63431;30843;310260;-1;4;-69;-2.0;-101;-17;88;LTE;30.44280;-97.74507;9;232;-2.0;2019/09/10;17:41:46;16238340;30843;-101;452;-1;-99;214;-1;-105
16238340;63431;30843;310260;-1;4;-69;-7.2;-101;-19;88;LTE;30.44280;-97.74505;10;231;-7.2;2019/09/10;17:41:47;16238340;30843;-101;452;-1;-99;214;-1;-105
16238340;63431;30843;310260;-1;4;-69;-7.2;-101;-19;88;LTE;30.44281;-97.74502;9;230;-7.2;2019/09/10;17:41:48;16238340;30843;-101;452;-1;-99;214;-1;-105
16238340;63431;30843;310260;-1;4;-69;-2.6;-101;-19;88;LTE;30.44282;-97.74500;8;231;-2.6;2019/09/10;17:41:49;16238340;30843;-101;452;-1;-107;214;-1;-106
16238340;63431;30843;310260;-1;4;-69;-2.6;-101;-19;88;LTE;30.44283;-97.74498;7;231;-2.6;2019/09/10;17:41:50;16238340;30843;-101;452;-1;-107;214;-1;-106
16238340;63431;30843;310260;-1;4;-69;-2.6;-101;-19;88;LTE;30.44284;-97.74496;6;231;-2.6;2019/09/10;17:41:51;16238340;30843;-101;452;-1;-107;214;-1;-106
16238340;63431;30843;310260;-1;4;-69;-2.6;-101;-19;88;LTE;30.44284;-97.74495;4;231;-2.6;2019/09/10;17:41:52;16238340;30843;-104;214;-1;-103;452;-1;-104
16238340;63431;30843;310260;-1;4;-69;-2.6;-101;-19;88;LTE;30.44285;-97.74495;2;230;-2.6;2019/09/10;17:41:53;16238340;30843;-104;214;-1;-103;452;-1;-104
16238340;63431;30843;310260;-1;4;-69;-2.6;-101;-19;88;LTE;30.44285;-97.74494;1;230;-2.6;2019/09/10;17:41:54;16238340;30843;-104;214;-1;-103;452;-1;-104
16238340;63431;30843;310260;-1;4;-69;-2.6;-101;-19;88;LTE;30.44285;-97.74494;0;230;-2.6;2019/09/10;17:41:55;16238340;30843;-105;214;-1;-104;12;-1;-105;452;-1;-106;212;-1;-107
16238340;63431;30843;310260;-1;4;-69;-6.6;-105;-19;88;LTE;30.44285;-97.74495;0;228;-6.6;2019/09/10;17:41:56;16238340;30843;-105;214;-1;-104;12;-1;-105;452;-1;-106;212;-1;-107
16238340;63431;30843;310260;-1;4;-69;-6.6;-105;-19;88;LTE;30.44285;-97.74495;0;228;-6.6;2019/09/10;17:41:57;16238340;30843;-105;214;-1;-104;12;-1;-105;452;-1;-106;212;-1;-107
16238340;63431;30843;310260;-1;4;-69;-6.6;-105;-19;88;LTE;30.44285;-97.74495;0;227;-6.6;2019/09/10;17:41:58;16238340;30843;-106;212;-1;-109;214;-1;-107;452;-1;-107
16238340;63431;30843;310260;-1;4;-69;-6.6;-105;-19;88;LTE;30.44285;-97.74495;0;228;-6.6;2019/09/10;17:41:59;16238340;30843;-106;212;-1;-109;214;-1;-107;452;-1;-107
16238340;63431;30843;310260;-1;4;-69;-6.6;-105;-19;88;LTE;30.44286;-97.74495;2;228;-6.6;2019/09/10;17:42:00;16238340;30843;-106;212;-1;-109;214;-1;-107;452;-1;-107
16238340;63431;30843;310260;-1;4;-69;-6.6;-105;-19;88;LTE;30.44286;-97.74494;7;228;-6.6;2019/09/10;17:42:01;16238340;30843;-107;214;-1;-108;212;-1;-109;452;-1;-107;281;-1;-106;12;-1;-110
16238340;63431;30843;310260;-1;4;-69;-6.6;-105;-19;88;LTE;30.44287;-97.74491;14;227;-6.6;2019/09/10;17:42:02;16238340;30843;-107;214;-1;-108;212;-1;-109;452;-1;-107;281;-1;-106;12;-1;-110
16238340;63431;30843;310260;-1;4;-69;-6.6;-105;-19;88;LTE;30.44290;-97.74486;18;228;-6.6;2019/09/10;17:42:03;16238340;30843;-107;214;-1;-108;212;-1;-109;452;-1;-107;281;-1;-106;12;-1;-110
16238340;63431;30843;310260;-1;4;-69;-6.6;-105;-19;88;LTE;30.44292;-97.74481;20;226;-6.6;2019/09/10;17:42:04;16238340;30843;-107;452;-1;-107;214;-1;-107
16238340;63431;30843;310260;-1;4;-69;-6.6;-105;-19;88;LTE;30.44294;-97.74475;23;227;-6.6;2019/09/10;17:42:05;16238340;30843;-107;452;-1;-107;214;-1;-107
16238340;63431;30843;310260;-1;4;-69;-6.6;-105;-19;88;LTE;30.44296;-97.74468;25;227;-6.6;2019/09/10;17:42:06;16238340;30843;-107;452;-1;-107;214;-1;-107
16238340;63431;30843;310260;-1;4;-69;-6.6;-105;-19;88;LTE;30.44299;-97.74461;26;225;-6.6;2019/09/10;17:42:07;16238340;30843;-101;452;-1;-109;281;-1;-108
16238340;63431;30843;310260;-1;4;-69;-8.8;-109;-19;88;LTE;30.44302;-97.74454;27;225;-8.8;2019/09/10;17:42:08;16238340;30843;-101;452;-1;-109;281;-1;-108
16238340;63431;30843;310260;-1;4;-69;-8.8;-109;-19;88;LTE;30.44305;-97.74447;27;225;-8.8;2019/09/10;17:42:09;16238340;30843;-101;452;-1;-109;281;-1;-108
16238340;63431;30843;310260;-1;4;-69;-8.8;-109;-19;88;LTE;30.44307;-97.74440;27;225;-8.8;2019/09/10;17:42:10;16238340;30843;-104;281;-1;-106;452;-1;-107
16238340;63431;30843;310260;-1;4;-69;-4.6;-103;-19;88;LTE;30.44311;-97.74432;27;224;-4.6;2019/09/10;17:42:11;16238340;30843;-104;281;-1;-106;452;-1;-107
16238340;63431;30843;310260;-1;4;-69;-4.6;-103;-19;88;LTE;30.44313;-97.74425;29;224;-4.6;2019/09/10;17:42:12;16238340;30843;-104;281;-1;-106;452;-1;-107
16238340;63431;30843;310260;-1;4;-69;0.4;-103;-19;88;LTE;30.44316;-97.74417;31;225;0.4;2019/09/10;17:42:13;16238340;30843;-103;452;-1;-109;281;-1;-108
16238340;63431;30843;310260;-1;4;-69;0.4;-103;-19;88;LTE;30.44320;-97.74408;31;224;0.4;2019/09/10;17:42:14;16238340;30843;-103;452;-1;-109;281;-1;-108
16238340;63431;30843;310260;-1;4;-69;0.4;-103;-19;88;LTE;30.44323;-97.74400;31;224;0.4;2019/09/10;17:42:15;16238340;30843;-103;452;-1;-109;281;-1;-108
16238340;63431;30843;310260;-1;4;-69;0.4;-103;-19;88;LTE;30.44326;-97.74390;31;223;0.4;2019/09/10;17:42:16;16238340;30843;-110;452;-1;-103;281;-1;-110
16238340;63431;30843;310260;-1;4;-69;0.4;-103;-19;88;LTE;30.44329;-97.74383;30;222;0.4;2019/09/10;17:42:17;16238340;30843;-110;452;-1;-103;281;-1;-110
16238340;63431;30843;310260;-1;4;-69;0.4;-103;-19;88;LTE;30.44332;-97.74375;30;223;0.4;2019/09/10;17:42:18;16238340;30843;-110;452;-1;-103;281;-1;-110
16238340;63431;30843;310260;-1;4;-69;0.4;-103;-19;88;LTE;30.44336;-97.74368;27;223;0.4;2019/09/10;17:42:19;16238340;30843;-104;452;-1;-109;454;-1;-111;281;-1;-111;406;-1;-111;212;-1;-112;407;-1;-110
16238340;63431;30843;310260;-1;4;-69;-4.0;-107;-19;88;LTE;30.44339;-97.74362;24;224;-4.0;2019/09/10;17:42:20;16238340;30843;-104;452;-1;-109;454;-1;-111;281;-1;-111;406;-1;-111;212;-1;-112;407;-1;-110
16238340;63431;30843;310260;-1;4;-69;-4.0;-107;-19;88;LTE;30.44341;-97.74357;19;223;-4.0;2019/09/10;17:42:21;16238340;30843;-104;452;-1;-109;454;-1;-111;281;-1;-111;406;-1;-111;212;-1;-112;407;-1;-110
16238340;63431;30843;310260;-1;4;-69;-4.0;-107;-19;88;LTE;30.44342;-97.74353;12;224;-4.0;2019/09/10;17:42:22;16238340;30843;-102;452;-1;-108;454;-1;-108;418;-1;-109;214;-1;-109
16238340;63431;30843;310260;-1;4;-69;-4.0;-107;-19;88;LTE;30.44343;-97.74351;6;225;-4.0;2019/09/10;17:42:23;16238340;30843;-102;452;-1;-108;454;-1;-108;418;-1;-109;214;-1;-109
16238340;63431;30843;310260;-1;4;-69;-1.8;-102;-17;88;LTE;30.44343;-97.74350;4;226;-1.8;2019/09/10;17:42:24;16238340;30843;-102;452;-1;-108;454;-1;-108;418;-1;-109;214;-1;-109
16238340;63431;30843;310260;-1;4;-69;-1.8;-102;-17;88;LTE;30.44343;-97.74350;0;226;-1.8;2019/09/10;17:42:25;16238340;30843;-101;452;-1;-107;454;-1;-103;214;-1;-106
16238340;63431;30843;310260;-1;4;-69;-1.8;-102;-17;88;LTE;30.44343;-97.74350;0;226;-1.8;2019/09/10;17:42:26;16238340;30843;-101;452;-1;-107;454;-1;-103;214;-1;-106
16238340;63431;30843;310260;-1;4;-69;-1.8;-102;-17;88;LTE;30.44343;-97.74349;0;224;-1.8;2019/09/10;17:42:27;16238340;30843;-101;452;-1;-107;454;-1;-103;214;-1;-106
16238340;63431;30843;310260;-1;4;-69;-1.8;-102;-17;88;LTE;30.44343;-97.74348;0;223;-1.8;2019/09/10;17:42:28;16238340;30843;-102;452;-1;-106;454;-1;-106;214;-1;-105;281;-1;-106;212;-1;-105
16238340;63431;30843;310260;-1;4;-69;-1.8;-102;-17;88;LTE;30.44343;-97.74347;0;222;-1.8;2019/09/10;17:42:29;16238340;30843;-102;452;-1;-106;454;-1;-106;214;-1;-105;281;-1;-106;212;-1;-105
16238340;63431;30843;310260;-1;4;-69;-1.8;-102;-17;88;LTE;30.44344;-97.74347;0;221;-1.8;2019/09/10;17:42:30;16238340;30843;-102;452;-1;-106;454;-1;-106;214;-1;-105;281;-1;-106;212;-1;-105
16238340;63431;30843;310260;-1;4;-69;-5.0;-102;-19;88;LTE;30.44344;-97.74347;0;221;-5.0;2019/09/10;17:42:31;16238340;30843;-104;214;-1;-110
16238340;63431;30843;310260;-1;4;-69;-5.0;-102;-19;88;LTE;30.44344;-97.74347;0;221;-5.0;2019/09/10;17:42:32;16238340;30843;-104;214;-1;-110
16238340;63431;30843;310260;-1;4;-69;-5.0;-102;-19;88;LTE;30.44344;-97.74347;0;221;-5.0;2019/09/10;17:42:33;16238340;30843;-104;214;-1;-110
16238340;63431;30843;310260;-1;4;-69;-5.0;-102;-19;88;LTE;30.44344;-97.74347;0;222;-5.0;2019/09/10;17:42:34;16238340;30843;-104;214;-1;-109;281;-1;-108;452;-1;-111;454;-1;-105
16238340;63431;30843;310260;-1;4;-69;-5.0;-102;-19;88;LTE;30.44344;-97.74347;0;221;-5.0;2019/09/10;17:42:35;16238340;30843;-104;214;-1;-109;281;-1;-108;452;-1;-111;454;-1;-105
16238340;63431;30843;310260;-1;4;-69;-5.0;-102;-19;88;LTE;30.44344;-97.74347;0;221;-5.0;2019/09/10;17:42:36;16238340;30843;-104;214;-1;-109;281;-1;-108;452;-1;-111;454;-1;-105
16238340;63431;30843;310260;-1;4;-69;-5.0;-102;-19;88;LTE;30.44344;-97.74347;0;221;-5.0;2019/09/10;17:42:37;16238340;30843;-105;214;-1;-107;281;-1;-104;454;-1;-104;452;-1;-106
16238340;63431;30843;310260;-1;4;-69;-9.0;-106;-19;88;LTE;30.44344;-97.74347;0;221;-9.0;2019/09/10;17:42:38;16238340;30843;-105;214;-1;-107;281;-1;-104;454;-1;-104;452;-1;-106
16238340;63431;30843;310260;-1;4;-69;-9.0;-106;-19;88;LTE;30.44344;-97.74347;0;221;-9.0;2019/09/10;17:42:39;16238340;30843;-105;214;-1;-107;281;-1;-104;454;-1;-104;452;-1;-106
16238340;63431;30843;310260;-1;4;-69;-9.0;-106;-19;88;LTE;30.44344;-97.74347;0;221;-9.0;2019/09/10;17:42:40;16238340;30843;-105
16238340;63431;30843;310260;-1;4;-69;-9.0;-106;-19;88;LTE;30.44344;-97.74347;0;221;-9.0;2019/09/10;17:42:41;16238340;30843;-105
16238340;63431;30843;310260;-1;4;-69;-9.0;-106;-19;88;LTE;30.44344;-97.74347;0;221;-9.0;2019/09/10;17:42:42;16238340;30843;-105
16238340;63431;30843;310260;-1;4;-69;-9.0;-106;-19;88;LTE;30.44344;-97.74347;0;221;-9.0;2019/09/10;17:42:43;16238340;30843;-106;454;-1;-107
16238340;63431;30843;310260;-1;4;-69;-9.0;-106;-19;88;LTE;30.44344;-97.74347;0;222;-9.0;2019/09/10;17:42:44;16238340;30843;-106;454;-1;-107
16238340;63431;30843;310260;-1;4;-69;-9.0;-106;-19;88;LTE;30.44344;-97.74347;0;222;-9.0;2019/09/10;17:42:45;16238340;30843;-106;454;-1;-107
16238340;63431;30843;310260;-1;4;-69;-9.0;-106;-19;88;LTE;30.44344;-97.74347;0;222;-9.0;2019/09/10;17:42:46;16238340;30843;-107;454;-1;-106
16238340;63431;30843;310260;-1;4;-69;-5.0;-106;-19;88;LTE;30.44344;-97.74347;0;222;-5.0;2019/09/10;17:42:47;16238340;30843;-107;454;-1;-106
16238340;63431;30843;310260;-1;4;-69;-5.0;-106;-19;88;LTE;30.44344;-97.74347;0;222;-5.0;2019/09/10;17:42:48;16238340;30843;-107;454;-1;-106
16238340;63431;30843;310260;-1;4;-69;-5.0;-106;-19;88;LTE;30.44344;-97.74347;0;222;-5.0;2019/09/10;17:42:49;16238340;30843;-105;454;-1;-105;214;-1;-109
16238340;63431;30843;310260;-1;4;-69;-5.0;-106;-19;88;LTE;30.44344;-97.74347;0;222;-5.0;2019/09/10;17:42:50;16238340;30843;-105;454;-1;-105;214;-1;-109
16238340;63431;30843;310260;-1;4;-69;-5.0;-106;-19;88;LTE;30.44344;-97.74347;0;222;-5.0;2019/09/10;17:42:51;16238340;30843;-105;454;-1;-105;214;-1;-109
16238340;63431;30843;310260;-1;4;-69;-5.0;-106;-19;88;LTE;30.44344;-97.74347;0;222;-5.0;2019/09/10;17:42:52;16238340;30843;-105;452;-1;-110;281;-1;-107
16238340;63431;30843;310260;-1;4;-69;-5.0;-106;-19;88;LTE;30.44344;-97.74347;0;222;-5.0;2019/09/10;17:42:53;16238340;30843;-105;452;-1;-110;281;-1;-107
16238340;63431;30843;310260;-1;4;-69;-5.0;-106;-19;88;LTE;30.44344;-97.74347;0;222;-5.0;2019/09/10;17:42:54;16238340;30843;-105;452;-1;-110;281;-1;-107
16238340;63431;30843;310260;-1;4;-69;-5.0;-106;-19;88;LTE;30.44344;-97.74347;0;222;-5.0;2019/09/10;17:42:55;16238340;30843;-107;281;-1;-110;452;-1;-105
16238340;63431;30843;310260;-1;4;-69;-5.0;-106;-19;88;LTE;30.44344;-97.74347;0;222;-5.0;2019/09/10;17:42:56;16238340;30843;-107;281;-1;-110;452;-1;-105
16238340;63431;30843;310260;-1;4;-69;-5.0;-106;-19;88;LTE;30.44344;-97.74347;0;222;-5.0;2019/09/10;17:42:57;16238340;30843;-107;281;-1;-110;452;-1;-105
16238340;63431;30843;310260;-1;4;-69;-5.0;-106;-19;88;LTE;30.44344;-97.74347;0;222;-5.0;2019/09/10;17:42:58;16238340;30843;-106;281;-1;-107;452;-1;-108;214;-1;-107
16238340;63431;30843;310260;-1;4;-69;-5.0;-106;-19;88;LTE;30.44344;-97.74347;0;222;-5.0;2019/09/10;17:42:59;16238340;30843;-106;281;-1;-107;452;-1;-108;214;-1;-107
16238340;63431;30843;310260;-1;4;-69;-5.0;-106;-19;88;LTE;30.44344;-97.74347;0;222;-5.0;2019/09/10;17:43:00;16238340;30843;-106;281;-1;-107;452;-1;-108;214;-1;-107
16238340;63431;30843;310260;-1;4;-69;-5.0;-106;-19;88;LTE;30.44344;-97.74347;0;222;-5.0;2019/09/10;17:43:01;16238340;30843;-105;454;-1;-104;281;-1;-106;452;-1;-106
16238340;63431;30843;310260;-1;4;-69;-5.0;-106;-19;88;LTE;30.44344;-97.74347;0;222;-5.0;2019/09/10;17:43:02;16238340;30843;-105;454;-1;-104;281;-1;-106;452;-1;-106
16238340;63431;30843;310260;-1;4;-69;-5.0;-106;-19;88;LTE;30.44344;-97.74347;0;222;-5.0;2019/09/10;17:43:03;16238340;30843;-105;454;-1;-104;281;-1;-106;452;-1;-106
16238340;63431;30843;310260;-1;4;-69;-5.0;-106;-19;88;LTE;30.44344;-97.74347;0;222;-5.0;2019/09/10;17:43:04;16238340;30843;-106;281;-1;-106
16238340;63431;30843;310260;-1;4;-69;-5.0;-106;-19;88;LTE;30.44344;-97.74346;0;222;-5.0;2019/09/10;17:43:05;16238340;30843;-106;281;-1;-106
16238340;63431;30843;310260;-1;4;-69;-5.0;-106;-19;88;LTE;30.44344;-97.74346;0;223;-5.0;2019/09/10;17:43:06;16238340;30843;-106;281;-1;-106
16238340;63431;30843;310260;-1;4;-69;-5.0;-106;-19;88;LTE;30.44344;-97.74347;0;223;-5.0;2019/09/10;17:43:07;16238340;30843;-106;281;-1;-107;454;-1;-107
16238340;63431;30843;310260;-1;4;-69;-5.0;-106;-19;88;LTE;30.44343;-97.74347;0;223;-5.0;2019/09/10;17:43:08;16238340;30843;-106;281;-1;-107;454;-1;-107
16238340;63431;30843;310260;-1;4;-69;-5.0;-106;-19;88;LTE;30.44343;-97.74347;0;223;-5.0;2019/09/10;17:43:09;16238340;30843;-106;281;-1;-107;454;-1;-107
16238340;63431;30843;310260;-1;4;-69;-5.0;-106;-19;88;LTE;30.44343;-97.74346;0;224;-5.0;2019/09/10;17:43:10;16238340;30843;-106;281;-1;-106;214;-1;-108
16238340;63431;30843;310260;-1;4;-69;-5.0;-106;-19;88;LTE;30.44342;-97.74347;0;225;-5.0;2019/09/10;17:43:11;16238340;30843;-106;281;-1;-106;214;-1;-108
16238340;63431;30843;310260;-1;4;-69;-5.0;-106;-19;88;LTE;30.44342;-97.74347;1;225;-5.0;2019/09/10;17:43:12;16238340;30843;-106;281;-1;-106;214;-1;-108
16238340;63431;30843;310260;-1;4;-69;-5.0;-106;-19;88;LTE;30.44342;-97.74348;0;226;-5.0;2019/09/10;17:43:13;16238340;30843;-105;281;-1;-108
16238340;63431;30843;310260;-1;4;-69;-5.0;-106;-19;88;LTE;30.44342;-97.74348;0;227;-5.0;2019/09/10;17:43:14;16238340;30843;-105;281;-1;-108
16238340;63431;30843;310260;-1;4;-69;-5.0;-106;-19;88;LTE;30.44342;-97.74348;0;228;-5.0;2019/09/10;17:43:15;16238340;30843;-105;281;-1;-108
16238340;63431;30843;310260;-1;4;-69;-5.0;-106;-19;88;LTE;30.44342;-97.74347;0;227;-5.0;2019/09/10;17:43:16;16238340;30843;-106;281;-1;-107;214;-1;-106;452;-1;-107
16238340;63431;30843;310260;-1;4;-69;-5.0;-106;-19;88;LTE;30.44342;-97.74347;0;227;-5.0;2019/09/10;17:43:17;16238340;30843;-106;281;-1;-107;214;-1;-106;452;-1;-107
16238340;63431;30843;310260;-1;4;-69;-5.0;-106;-19;88;LTE;30.44342;-97.74348;0;228;-5.0;2019/09/10;17:43:18;16238340;30843;-106;281;-1;-107;214;-1;-106;452;-1;-107
16238340;63431;30843;310260;-1;4;-69;-5.0;-106;-19;88;LTE;30.44342;-97.74348;0;227;-5.0;2019/09/10;17:43:19;16238340;30843;-106;214;-1;-109;452;-1;-107;281;-1;-107;212;-1;-109
16238340;63431;30843;310260;-1;4;-69;-5.0;-106;-19;88;LTE;30.44342;-97.74347;0;227;-5.0;2019/09/10;17:43:20;16238340;30843;-106;214;-1;-109;452;-1;-107;281;-1;-107;212;-1;-109
16238340;63431;30843;310260;-1;4;-69;-5.0;-106;-19;88;LTE;30.44342;-97.74347;0;227;-5.0;2019/09/10;17:43:21;16238340;30843;-106;214;-1;-109;452;-1;-107;281;-1;-107;212;-1;-109
16238340;63431;30843;310260;-1;4;-69;-5.0;-106;-19;88;LTE;30.44342;-97.74347;0;226;-5.0;2019/09/10;17:43:22;16238340;30843;-106;454;-1;-106;281;-1;-107;452;-1;-110
16238340;63431;30843;310260;-1;4;-69;-5.0;-106;-19;88;LTE;30.44342;-97.74347;0;226;-5.0;2019/09/10;17:43:23;16238340;30843;-106;454;-1;-106;281;-1;-107;452;-1;-110
16238340;63431;30843;310260;-1;4;-69;-5.0;-106;-19;88;LTE;30.44342;-97.74347;0;226;-5.0;2019/09/10;17:43:24;16238340;30843;-106;454;-1;-106;281;-1;-107;452;-1;-110
16238340;63431;30843;310260;-1;4;-69;-5.0;-106;-19;88;LTE;30.44342;-97.74347;0;226;-5.0;2019/09/10;17:43:25;16238340;30843;-107;281;-1;-107;214;-1;-108;452;-1;-109
16238340;63431;30843;310260;-1;4;-69;-5.0;-106;-19;88;LTE;30.44342;-97.74347;0;226;-5.0;2019/09/10;17:43:26;16238340;30843;-107;281;-1;-107;214;-1;-108;452;-1;-109
16238340;63431;30843;310260;-1;4;-69;-5.0;-106;-19;88;LTE;30.44342;-97.74347;0;226;-5.0;2019/09/10;17:43:27;16238340;30843;-107;281;-1;-107;214;-1;-108;452;-1;-109
16238340;63431;30843;310260;-1;4;-69;-5.0;-106;-19;88;LTE;30.44342;-97.74347;0;226;-5.0;2019/09/10;17:43:28;16238340;30843;-106;281;-1;-105;452;-1;-106;214;-1;-107
16238340;63431;30843;310260;-1;4;-69;-5.0;-106;-19;88;LTE;30.44342;-97.74347;0;226;-5.0;2019/09/10;17:43:29;16238340;30843;-106;281;-1;-105;452;-1;-106;214;-1;-107
16238340;63431;30843;310260;-1;4;-69;-5.0;-106;-19;88;LTE;30.44342;-97.74347;0;226;-5.0;2019/09/10;17:43:30;16238340;30843;-106;281;-1;-105;452;-1;-106;214;-1;-107
16238340;63431;30843;310260;-1;4;-69;-5.0;-106;-19;88;LTE;30.44342;-97.74347;0;226;-5.0;2019/09/10;17:43:31;16238340;30843;-105;452;-1;-106;281;-1;-107
16238340;63431;30843;310260;-1;4;-69;-5.0;-106;-19;88;LTE;30.44342;-97.74347;0;226;-5.0;2019/09/10;17:43:32;16238340;30843;-105;452;-1;-106;281;-1;-107
16238340;63431;30843;310260;-1;4;-69;-5.0;-106;-19;88;LTE;30.44342;-97.74347;0;226;-5.0;2019/09/10;17:43:33;16238340;30843;-105;452;-1;-106;281;-1;-107
16238340;63431;30843;310260;-1;4;-69;-5.0;-106;-19;88;LTE;30.44342;-97.74347;0;226;-5.0;2019/09/10;17:43:34;16238340;30843;-104;452;-1;-107;281;-1;-105
16238340;63431;30843;310260;-1;4;-69;-5.0;-106;-19;88;LTE;30.44342;-97.74347;0;226;-5.0;2019/09/10;17:43:35;16238340;30843;-104;452;-1;-107;281;-1;-105
16238340;63431;30843;310260;-1;4;-69;-5.0;-106;-19;88;LTE;30.44342;-97.74347;0;226;-5.0;2019/09/10;17:43:36;16238340;30843;-104;452;-1;-107;281;-1;-105
16238340;63431;30843;310260;-1;4;-69;-5.0;-106;-19;88;LTE;30.44342;-97.74347;0;226;-5.0;2019/09/10;17:43:37;16238340;30843;-105;281;-1;-107;214;-1;-108
16238340;63431;30843;310260;-1;4;-69;-5.0;-106;-19;88;LTE;30.44342;-97.74347;0;227;-5.0;2019/09/10;17:43:38;16238340;30843;-105;281;-1;-107;214;-1;-108
16238340;63431;30843;310260;-1;4;-69;-5.0;-106;-19;88;LTE;30.44342;-97.74347;0;227;-5.0;2019/09/10;17:43:39;16238340;30843;-105;281;-1;-107;214;-1;-108
16238340;63431;30843;310260;-1;4;-69;-5.0;-106;-19;88;LTE;30.44342;-97.74347;0;227;-5.0;2019/09/10;17:43:40;16238340;30843;-105;214;-1;-109;281;-1;-108
16238340;63431;30843;310260;-1;4;-69;-5.0;-106;-19;88;LTE;30.44342;-97.74347;0;227;-5.0;2019/09/10;17:43:41;16238340;30843;-105;214;-1;-109;281;-1;-108
16238340;63431;30843;310260;-1;4;-69;-5.0;-106;-19;88;LTE;30.44342;-97.74347;0;227;-5.0;2019/09/10;17:43:42;16238340;30843;-105;214;-1;-109;281;-1;-108
16238340;63431;30843;310260;-1;4;-69;-5.0;-106;-19;88;LTE;30.44342;-97.74347;0;227;-5.0;2019/09/10;17:43:43;16238340;30843;-105;281;-1;-105;214;-1;-107;452;-1;-105
16238340;63431;30843;310260;-1;4;-69;-5.0;-106;-19;88;LTE;30.44342;-97.74347;0;227;-5.0;2019/09/10;17:43:44;16238340;30843;-105;281;-1;-105;214;-1;-107;452;-1;-105
16238340;63431;30843;310260;-1;4;-69;-5.0;-106;-19;88;LTE;30.44342;-97.74347;0;227;-5.0;2019/09/10;17:43:45;16238340;30843;-105;281;-1;-105;214;-1;-107;452;-1;-105
16238340;63431;30843;310260;-1;4;-69;-5.0;-106;-19;88;LTE;30.44342;-97.74347;0;227;-5.0;2019/09/10;17:43:46;16238340;30843;-105;281;-1;-106;452;-1;-112
16238340;63431;30843;310260;-1;4;-69;-5.0;-106;-19;88;LTE;30.44342;-97.74347;0;227;-5.0;2019/09/10;17:43:47;16238340;30843;-105;281;-1;-106;452;-1;-112
16238340;63431;30843;310260;-1;4;-69;-5.0;-106;-19;88;LTE;30.44342;-97.74347;0;227;-5.0;2019/09/10;17:43:48;16238340;30843;-105;281;-1;-106;452;-1;-112
16238340;63431;30843;310260;-1;4;-69;-5.0;-106;-19;88;LTE;30.44342;-97.74347;0;227;-5.0;2019/09/10;17:43:49;16238340;30843;-106;281;-1;-108;452;-1;-108
16238340;63431;30843;310260;-1;4;-69;-5.0;-106;-19;88;LTE;30.44342;-97.74347;0;227;-5.0;2019/09/10;17:43:50;16238340;30843;-106;281;-1;-108;452;-1;-108
16238340;63431;30843;310260;-1;4;-69;-5.0;-106;-19;88;LTE;30.44342;-97.74347;0;227;-5.0;2019/09/10;17:43:51;16238340;30843;-106;281;-1;-108;452;-1;-108
16238340;63431;30843;310260;-1;4;-69;-5.0;-106;-19;88;LTE;30.44342;-97.74347;0;227;-5.0;2019/09/10;17:43:52;16238340;30843;-107;454;-1;-107;281;-1;-106;452;-1;-111
16238340;63431;30843;310260;-1;4;-69;-5.0;-106;-19;88;LTE;30.44342;-97.74347;0;227;-5.0;2019/09/10;17:43:53;16238340;30843;-107;454;-1;-107;281;-1;-106;452;-1;-111
16238340;63431;30843;310260;-1;4;-69;-5.0;-106;-19;88;LTE;30.44342;-97.74347;0;227;-5.0;2019/09/10;17:43:54;16238340;30843;-107;454;-1;-107;281;-1;-106;452;-1;-111
16238340;63431;30843;310260;-1;4;-69;-5.0;-106;-19;88;LTE;30.44342;-97.74347;0;227;-5.0;2019/09/10;17:43:55;16238340;30843;-105;454;-1;-105;281;-1;-109;452;-1;-110
16238340;63431;30843;310260;-1;4;-69;-5.0;-106;-19;88;LTE;30.44342;-97.74347;0;227;-5.0;2019/09/10;17:43:56;16238340;30843;-105;454;-1;-105;281;-1;-109;452;-1;-110
16238340;63431;30843;310260;-1;4;-69;-5.0;-106;-19;88;LTE;30.44342;-97.74347;0;227;-5.0;2019/09/10;17:43:57;16238340;30843;-105;454;-1;-105;281;-1;-109;452;-1;-110
16238340;63431;30843;310260;-1;4;-69;-5.0;-106;-19;88;LTE;30.44342;-97.74347;0;227;-5.0;2019/09/10;17:43:58;16238340;30843;-105;454;-1;-105;452;-1;-107;281;-1;-107
16238340;63431;30843;310260;-1;4;-69;-5.0;-106;-19;88;LTE;30.44342;-97.74347;0;227;-5.0;2019/09/10;17:43:59;16238340;30843;-105;454;-1;-105;452;-1;-107;281;-1;-107
16238340;63431;30843;310260;-1;4;-69;-5.0;-106;-19;88;LTE;30.44342;-97.74347;0;227;-5.0;2019/09/10;17:44:00;16238340;30843;-105;454;-1;-105;452;-1;-107;281;-1;-107
16238340;63431;30843;310260;-1;4;-69;-5.0;-106;-19;88;LTE;30.44342;-97.74347;0;227;-5.0;2019/09/10;17:44:01;16238340;30843;-105;281;-1;-107
16238340;63431;30843;310260;-1;4;-69;-5.0;-106;-19;88;LTE;30.44342;-97.74347;0;227;-5.0;2019/09/10;17:44:02;16238340;30843;-105;281;-1;-107
16238340;63431;30843;310260;-1;4;-69;-5.0;-106;-19;88;LTE;30.44342;-97.74347;3;226;-5.0;2019/09/10;17:44:03;16238340;30843;-105;281;-1;-107
16238340;63431;30843;310260;-1;4;-69;-5.0;-106;-19;88;LTE;30.44343;-97.74344;12;226;-5.0;2019/09/10;17:44:04;16238340;30843;-105;212;-1;-111;454;-1;-106;214;-1;-110;452;-1;-111;281;-1;-111;87;-1;-111;0;-1;0;0;-1;0
16238340;63431;30843;310260;-1;4;-69;-5.0;-106;-19;88;LTE;30.44345;-97.74340;20;226;-5.0;2019/09/10;17:44:05;16238340;30843;-105;212;-1;-111;454;-1;-106;214;-1;-110;452;-1;-111;281;-1;-111;87;-1;-111;0;-1;0;0;-1;0
16238340;63431;30843;310260;-1;4;-69;-5.0;-106;-19;88;LTE;30.44347;-97.74334;22;225;-5.0;2019/09/10;17:44:06;16238340;30843;-106;452;-1;-111;454;-1;-109;214;-1;-110;418;-1;-110;406;-1;-111;281;-1;-109;87;-1;-107;190;-1;-109;169;-1;-107;418;-1;-108;302;-1;-110;268;-1;-109
16238340;63431;30843;310260;-1;4;-69;-5.0;-106;-19;88;LTE;30.44350;-97.74327;30;225;-5.0;2019/09/10;17:44:07;16238340;30843;-106;452;-1;-111;454;-1;-109;214;-1;-110;418;-1;-110;406;-1;-111;281;-1;-109;87;-1;-107;190;-1;-109;169;-1;-107;418;-1;-108;302;-1;-110;268;-1;-109
16238340;63431;30843;310260;-1;4;-69;-5.0;-106;-19;88;LTE;30.44354;-97.74318;36;224;-5.0;2019/09/10;17:44:08;16238340;30843;-106;452;-1;-111;454;-1;-109;214;-1;-110;418;-1;-110;406;-1;-111;281;-1;-109;87;-1;-107;190;-1;-109;169;-1;-107;418;-1;-108;302;-1;-110;268;-1;-109
16238340;63431;30843;310260;-1;4;-69;-10.0;-114;-19;88;LTE;30.44358;-97.74307;41;223;-10.0;2019/09/10;17:44:09;16238340;30843;-109;452;-1;-108;454;-1;-109;281;-1;-108;406;-1;-108;214;-1;-109;418;-1;-107;407;-1;-112;87;-1;-110;190;-1;-112;169;-1;-111;418;-1;-109;302;-1;-113;0;-1;0
16238340;63431;30843;310260;-1;4;-69;-10.0;-114;-19;88;LTE;30.44362;-97.74296;44;221;-10.0;2019/09/10;17:44:10;16238340;30843;-109;452;-1;-108;454;-1;-109;281;-1;-108;406;-1;-108;214;-1;-109;418;-1;-107;407;-1;-112;87;-1;-110;190;-1;-112;169;-1;-111;418;-1;-109;302;-1;-113;0;-1;0
16238340;63431;30843;310260;-1;4;-69;-10.0;-114;-19;88;LTE;30.44366;-97.74284;44;221;-10.0;2019/09/10;17:44:11;16238340;30843;-109;452;-1;-108;454;-1;-109;281;-1;-108;406;-1;-108;214;-1;-109;418;-1;-107;407;-1;-112;87;-1;-110;190;-1;-112;169;-1;-111;418;-1;-109;302;-1;-113;0;-1;0
16238340;63431;30843;310260;-1;4;-69;-10.0;-114;-19;88;LTE;30.44370;-97.74275;40;222;-10.0;2019/09/10;17:44:12;16238340;30843;-104;452;-1;-108;281;-1;-107;454;-1;-107;406;-1;-105;268;-1;-108;214;-1;-108;87;-1;-108;190;-1;-110;169;-1;-107;418;-1;-108;302;-1;-110;445;-1;-109;446;-1;-111;268;-1;-110
16238340;63431;30843;310260;-1;4;-69;-10.0;-114;-19;88;LTE;30.44373;-97.74266;35;221;-10.0;2019/09/10;17:44:13;16238340;30843;-104;452;-1;-108;281;-1;-107;454;-1;-107;406;-1;-105;268;-1;-108;214;-1;-108;87;-1;-108;190;-1;-110;169;-1;-107;418;-1;-108;302;-1;-110;445;-1;-109;446;-1;-111;268;-1;-110
16238340;63431;30843;310260;-1;4;-69;-4.6;-106;-19;88;LTE;30.44377;-97.74257;32;221;-4.6;2019/09/10;17:44:14;16238340;30843;-104;452;-1;-108;281;-1;-107;454;-1;-107;406;-1;-105;268;-1;-108;214;-1;-108;87;-1;-108;190;-1;-110;169;-1;-107;418;-1;-108;302;-1;-110;445;-1;-109;446;-1;-111;268;-1;-110
16238340;63431;30843;310260;-1;4;-69;-4.6;-106;-19;88;LTE;30.44381;-97.74250;31;221;-4.6;2019/09/10;17:44:15;16238340;30843;-107;452;-1;-110;406;-1;-107;407;-1;-109;214;-1;-110;454;-1;-112;281;-1;-111;87;-1;-110;446;-1;-113;169;-1;-110;418;-1;-114;302;-1;-115;445;-1;-112;268;-1;-114
16238340;63431;30843;310260;-1;4;-69;0.2;-106;-19;88;LTE;30.44385;-97.74244;28;221;0.2;2019/09/10;17:44:16;16238340;30843;-107;452;-1;-110;406;-1;-107;407;-1;-109;214;-1;-110;454;-1;-112;281;-1;-111;87;-1;-110;446;-1;-113;169;-1;-110;418;-1;-114;302;-1;-115;445;-1;-112;268;-1;-114
16238340;63431;30843;310260;-1;4;-69;0.2;-106;-19;88;LTE;30.44391;-97.74240;26;222;0.2;2019/09/10;17:44:17;16238340;30843;-107;452;-1;-110;406;-1;-107;407;-1;-109;214;-1;-110;454;-1;-112;281;-1;-111;87;-1;-110;446;-1;-113;169;-1;-110;418;-1;-114;302;-1;-115;445;-1;-112;268;-1;-114
16238340;63431;30843;310260;-1;4;-77;-4.0;-114;-19;88;LTE;30.44397;-97.74236;26;221;-4.0;2019/09/10;17:44:18;16238340;30843;-116;454;-1;-110;406;-1;-109;407;-1;-109;214;-1;-111;452;-1;-110;212;-1;-110;281;-1;-111;87;-1;-105;446;-1;-114;169;-1;-114;418;-1;-116;268;-1;-115;190;-1;-109
41045254;160333;30841;310260;-1;6;-85;-4.0;-110;-17;88;LTE;30.44404;-97.74239;27;223;-4.0;2019/09/10;17:44:19;16238340;30843;-116;454;-1;-110;406;-1;-109;407;-1;-109;214;-1;-111;452;-1;-110;212;-1;-110;281;-1;-111;87;-1;-105;446;-1;-114;169;-1;-114;418;-1;-116;268;-1;-115;190;-1;-109
41045254;160333;30841;310260;-1;6;-85;-4.0;-110;-17;88;LTE;30.44411;-97.74242;32;222;-4.0;2019/09/10;17:44:20;41045254;30841;-107;407;-1;-110;406;-1;-110;214;-1;-108;452;-1;-109;281;-1;-111
41045254;160333;30841;310260;-1;6;-85;-4.0;-110;-17;88;LTE;30.44419;-97.74247;38;222;-4.0;2019/09/10;17:44:21;41045254;30841;-107;407;-1;-110;406;-1;-110;214;-1;-108;452;-1;-109;281;-1;-111
41045254;160333;30841;310260;-1;6;-85;-4.0;-110;-17;88;LTE;30.44429;-97.74251;41;223;-4.0;2019/09/10;17:44:22;41045254;30841;-107;407;-1;-110;406;-1;-110;214;-1;-108;452;-1;-109;281;-1;-111
17039873;66562;30843;310260;-1;1;-85;-4.0;-110;-17;88;LTE;30.44438;-97.74257;44;224;-4.0;2019/09/10;17:44:23;17039873;30843;-110;212;-1;-110;454;-1;-112;281;-1;-110;452;-1;-112;268;-1;-112;407;-1;-111;418;-1;-111
17039873;66562;30843;310260;-1;1;-85;-4.0;-110;-17;88;LTE;30.44450;-97.74262;49;223;-4.0;2019/09/10;17:44:24;17039873;30843;-110;212;-1;-110;454;-1;-112;281;-1;-110;452;-1;-112;268;-1;-112;407;-1;-111;418;-1;-111
17039873;66562;30843;310260;-1;1;-73;-2.0;-106;-17;88;LTE;30.44462;-97.74268;55;223;-2.0;2019/09/10;17:44:25;17039873;30843;-110;212;-1;-110;454;-1;-112;281;-1;-110;452;-1;-112;268;-1;-112;407;-1;-111;418;-1;-111
17039873;66562;30843;310260;-1;1;-73;-2.0;-106;-17;88;LTE;30.44475;-97.74275;60;222;-2.0;2019/09/10;17:44:26;17039873;30843;-109;212;-1;-111;87;-1;-109;281;-1;-110;452;-1;-109;268;-1;-113;407;-1;-111;42;-1;-108
17039873;66562;30843;310260;-1;1;-69;-5.0;-106;-15;88;LTE;30.44489;-97.74282;60;223;-5.0;2019/09/10;17:44:27;17039873;30843;-109;212;-1;-111;87;-1;-109;281;-1;-110;452;-1;-109;268;-1;-113;407;-1;-111;42;-1;-108
17039873;66562;30843;310260;-1;1;-69;-5.0;-106;-15;88;LTE;30.44503;-97.74290;62;223;-5.0;2019/09/10;17:44:28;17039873;30843;-109;212;-1;-111;87;-1;-109;281;-1;-110;452;-1;-109;268;-1;-113;407;-1;-111;42;-1;-108
17039873;66562;30843;310260;-1;1;-69;-5.0;-106;-15;88;LTE;30.44518;-97.74297;66;224;-5.0;2019/09/10;17:44:29;17039873;30843;-111;454;-1;-108;407;-1;-108;42;-1;-110;452;-1;-110;268;-1;-107
17039873;66562;30843;310260;-1;1;-69;-5.0;-106;-15;88;LTE;30.44534;-97.74305;70;223;-5.0;2019/09/10;17:44:30;17039873;30843;-111;454;-1;-108;407;-1;-108;42;-1;-110;452;-1;-110;268;-1;-107
17039873;66562;30843;310260;-1;1;-69;-5.0;-106;-15;88;LTE;30.44550;-97.74313;73;222;-5.0;2019/09/10;17:44:31;17039873;30843;-111;454;-1;-108;407;-1;-108;42;-1;-110;452;-1;-110;268;-1;-107
17039873;66562;30843;310260;-1;1;-75;-4.6;-110;-17;88;LTE;30.44567;-97.74320;76;221;-4.6;2019/09/10;17:44:32;17039873;30843;-102;452;-1;-112;407;-1;-108;454;-1;-110
17039873;66562;30843;310260;-1;1;-75;-4.6;-110;-17;88;LTE;30.44586;-97.74330;79;222;-4.6;2019/09/10;17:44:33;17039873;30843;-102;452;-1;-112;407;-1;-108;454;-1;-110
17039873;66562;30843;310260;-1;1;-75;1.4;-102;-13;88;LTE;30.44605;-97.74339;82;223;1.4;2019/09/10;17:44:34;17039873;30843;-102;452;-1;-112;407;-1;-108;454;-1;-110
17039873;66562;30843;310260;-1;1;-75;1.4;-102;-13;88;LTE;30.44623;-97.74349;80;224;1.4;2019/09/10;17:44:35;17039873;30843;-102;452;-1;-111;407;-1;-108;454;-1;-108;400;-1;-111
17039873;66562;30843;310260;-1;1;-69;0.4;-98;-13;88;LTE;30.44641;-97.74360;78;226;0.4;2019/09/10;17:44:36;17039873;30843;-102;452;-1;-111;407;-1;-108;454;-1;-108;400;-1;-111
17039873;66562;30843;310260;-1;1;-69;0.4;-98;-13;88;LTE;30.44658;-97.74371;80;227;0.4;2019/09/10;17:44:37;17039873;30843;-102;452;-1;-111;407;-1;-108;454;-1;-108;400;-1;-111
17039873;66562;30843;310260;-1;1;-69;0.4;-98;-13;88;LTE;30.44676;-97.74382;81;228;0.4;2019/09/10;17:44:38;17039873;30843;-101;87;-1;-107
17039873;66562;30843;310260;-1;1;-69;0.4;-98;-13;88;LTE;30.44694;-97.74394;82;229;0.4;2019/09/10;17:44:39;17039873;30843;-101;87;-1;-107
17039873;66562;30843;310260;-1;1;-69;0.4;-98;-13;88;LTE;30.44711;-97.74406;83;230;0.4;2019/09/10;17:44:40;17039873;30843;-101;87;-1;-107
17039873;66562;30843;310260;-1;1;-69;-6.4;-108;-16;88;LTE;30.44730;-97.74420;85;231;-6.4;2019/09/10;17:44:41;17039873;30843;-102;212;-1;-106;454;-1;-105;214;-1;-104;452;-1;-105;159;-1;-107
17039873;66562;30843;310260;-1;1;-69;-6.4;-108;-16;88;LTE;30.44747;-97.74434;85;232;-6.4;2019/09/10;17:44:42;17039873;30843;-102;212;-1;-106;454;-1;-105;214;-1;-104;452;-1;-105;159;-1;-107
17039873;66562;30843;310260;-1;1;-69;-0.8;-102;-16;88;LTE;30.44765;-97.74447;86;231;-0.8;2019/09/10;17:44:43;17039873;30843;-102;212;-1;-106;454;-1;-105;214;-1;-104;452;-1;-105;159;-1;-107
17039873;66562;30843;310260;-1;1;-69;-1.6;-102;-14;88;LTE;30.44783;-97.74461;88;232;-1.6;2019/09/10;17:44:44;17039873;30843;-98
17039873;66562;30843;310260;-1;1;-69;-1.6;-102;-14;88;LTE;30.44801;-97.74477;88;233;-1.6;2019/09/10;17:44:45;17039873;30843;-98
17039873;66562;30843;310260;-1;1;-69;-1.6;-102;-14;88;LTE;30.44819;-97.74493;88;234;-1.6;2019/09/10;17:44:46;17039873;30843;-98
17039873;66562;30843;310260;-1;1;-69;-3.0;-102;-16;88;LTE;30.44836;-97.74509;88;236;-3.0;2019/09/10;17:44:47;17039873;30843;-87;214;-1;-101;454;-1;-96;452;-1;-97
17039873;66562;30843;310260;-1;1;-69;-3.0;-102;-16;88;LTE;30.44853;-97.74525;88;236;-3.0;2019/09/10;17:44:48;17039873;30843;-87;214;-1;-101;454;-1;-96;452;-1;-97
17039873;66562;30843;310260;-1;1;-69;-3.0;-102;-16;88;LTE;30.44869;-97.74543;88;237;-3.0;2019/09/10;17:44:49;17039873;30843;-87;214;-1;-101;454;-1;-96;452;-1;-97
17039873;66562;30843;310260;-1;1;-59;5.2;-87;-11;88;LTE;30.44885;-97.74560;88;237;5.2;2019/09/10;17:44:50;17039873;30843;-87;214;-1;-96;454;-1;-92;452;-1;-94
17039873;66562;30843;310260;-1;1;-59;5.2;-87;-11;88;LTE;30.44900;-97.74578;89;238;5.2;2019/09/10;17:44:51;17039873;30843;-87;214;-1;-96;454;-1;-92;452;-1;-94
17039873;66562;30843;310260;-1;1;-59;5.2;-87;-11;88;LTE;30.44916;-97.74596;89;239;5.2;2019/09/10;17:44:52;17039873;30843;-87;214;-1;-96;454;-1;-92;452;-1;-94
17039873;66562;30843;310260;-1;1;-59;3.2;-87;-13;88;LTE;30.44931;-97.74615;89;240;3.2;2019/09/10;17:44:53;17039873;30843;-89
17039873;66562;30843;310260;-1;1;-59;3.2;-87;-13;88;LTE;30.44947;-97.74634;89;239;3.2;2019/09/10;17:44:54;17039873;30843;-89
17039873;66562;30843;310260;-1;1;-59;3.2;-87;-13;88;LTE;30.44962;-97.74652;89;240;3.2;2019/09/10;17:44:55;17039873;30843;-89
17039873;66562;30843;310260;-1;1;-59;3.2;-87;-13;88;LTE;30.44977;-97.74671;89;240;3.2;2019/09/10;17:44:56;17039873;30843;-94
17039873;66562;30843;310260;-1;1;-59;3.2;-87;-13;88;LTE;30.44993;-97.74690;89;241;3.2;2019/09/10;17:44:57;17039873;30843;-94
17039873;66562;30843;310260;-1;1;-59;3.2;-87;-13;88;LTE;30.45008;-97.74709;89;241;3.2;2019/09/10;17:44:58;17039873;30843;-94
17039873;66562;30843;310260;-1;1;-59;-5.8;-95;-17;88;LTE;30.45024;-97.74727;89;241;-5.8;2019/09/10;17:44:59;17039873;30843;-100;452;-1;-94;214;-1;-96
16475907;64359;30843;310260;-1;3;-59;-5.8;-95;-17;88;LTE;30.45040;-97.74746;90;240;-5.8;2019/09/10;17:45:00;17039873;30843;-100;452;-1;-94;214;-1;-96
16475907;64359;30843;310260;-1;3;-59;-5.8;-95;-17;88;LTE;30.45055;-97.74765;89;239;-5.8;2019/09/10;17:45:01;17039873;30843;-100;452;-1;-94;214;-1;-96
16475907;64359;30843;310260;-1;3;-59;1.2;-107;-20;88;LTE;30.45070;-97.74785;90;239;1.2;2019/09/10;17:45:02;16475907;30843;-92;214;-1;-84
17017090;66473;30843;310260;-1;2;-59;1.2;-107;-20;88;LTE;30.45084;-97.74804;91;238;1.2;2019/09/10;17:45:03;16475907;30843;-92;214;-1;-84
17017090;66473;30843;310260;-1;2;-59;1.2;-107;-20;88;LTE;30.45099;-97.74826;91;237;1.2;2019/09/10;17:45:04;16475907;30843;-92;214;-1;-84
17017090;66473;30843;310260;-1;2;-59;1.2;-88;-15;88;LTE;30.45113;-97.74847;92;237;1.2;2019/09/10;17:45:05;17017090;30843;-85;452;-1;-92
17017090;66473;30843;310260;-1;2;-59;1.2;-88;-15;88;LTE;30.45128;-97.74867;92;236;1.2;2019/09/10;17:45:06;17017090;30843;-85;452;-1;-92
17017090;66473;30843;310260;-1;2;-59;1.2;-88;-15;88;LTE;30.45143;-97.74888;92;235;1.2;2019/09/10;17:45:07;17017090;30843;-85;452;-1;-92
17017090;66473;30843;310260;-1;2;-59;11.0;-88;-15;88;LTE;30.45157;-97.74909;92;235;11.0;2019/09/10;17:45:08;17017090;30843;-87;452;-1;-93
17017090;66473;30843;310260;-1;2;-59;11.0;-88;-15;88;LTE;30.45171;-97.74930;93;234;11.0;2019/09/10;17:45:09;17017090;30843;-87;452;-1;-93
17017090;66473;30843;310260;-1;2;-59;11.0;-88;-15;88;LTE;30.45186;-97.74951;93;233;11.0;2019/09/10;17:45:10;17017090;30843;-87;452;-1;-93
17017090;66473;30843;310260;-1;2;-59;11.0;-88;-15;88;LTE;30.45201;-97.74972;93;233;11.0;2019/09/10;17:45:11;17017090;30843;-96;452;-1;-92
16475907;64359;30843;310260;-1;3;-59;11.6;-106;-20;88;LTE;30.45216;-97.74993;91;233;11.6;2019/09/10;17:45:12;17017090;30843;-96;452;-1;-92
16475907;64359;30843;310260;-1;3;-59;11.6;-106;-20;88;LTE;30.45231;-97.75012;90;233;11.6;2019/09/10;17:45:13;17017090;30843;-96;452;-1;-92
16475907;64359;30843;310260;-1;3;-59;11.6;-93;-16;88;LTE;30.45247;-97.75031;88;233;11.6;2019/09/10;17:45:14;16475907;30843;-85;214;-1;-94
16475907;64359;30843;310260;-1;3;-59;11.6;-93;-16;88;LTE;30.45262;-97.75049;87;233;11.6;2019/09/10;17:45:15;16475907;30843;-85;214;-1;-94
16475907;64359;30843;310260;-1;3;-59;11.6;-93;-16;88;LTE;30.45278;-97.75067;87;234;11.6;2019/09/10;17:45:16;16475907;30843;-85;214;-1;-94
16475907;64359;30843;310260;-1;3;-59;9.4;-85;-14;88;LTE;30.45294;-97.75083;87;233;9.4;2019/09/10;17:45:17;16475907;30843;-95;214;-1;-100
16475907;64359;30843;310260;-1;3;-59;9.4;-85;-14;88;LTE;30.45310;-97.75100;87;233;9.4;2019/09/10;17:45:18;16475907;30843;-95;214;-1;-100
16475907;64359;30843;310260;-1;3;-59;9.2;-96;-16;88;LTE;30.45328;-97.75115;85;234;9.2;2019/09/10;17:45:19;16475907;30843;-95;214;-1;-100
16475907;64359;30843;310260;-1;3;-59;9.2;-96;-16;88;LTE;30.45344;-97.75130;85;233;9.2;2019/09/10;17:45:20;16475907;30843;-93;214;-1;-100;400;-1;-100
16475907;64359;30843;310260;-1;3;-59;9.2;-96;-16;88;LTE;30.45361;-97.75143;85;233;9.2;2019/09/10;17:45:21;16475907;30843;-93;214;-1;-100;400;-1;-100
16475907;64359;30843;310260;-1;3;-63;1.8;-96;-13;88;LTE;30.45379;-97.75157;84;233;1.8;2019/09/10;17:45:22;16475907;30843;-93;214;-1;-100;400;-1;-100
16475907;64359;30843;310260;-1;3;-63;1.8;-96;-13;88;LTE;30.45396;-97.75170;82;233;1.8;2019/09/10;17:45:23;16475907;30843;-95;214;-1;-97;400;-1;-100
16475907;64359;30843;310260;-1;3;-63;1.8;-96;-13;88;LTE;30.45413;-97.75181;79;232;1.8;2019/09/10;17:45:24;16475907;30843;-95;214;-1;-97;400;-1;-100
16475907;64359;30843;310260;-1;3;-63;1.8;-96;-13;88;LTE;30.45430;-97.75192;77;232;1.8;2019/09/10;17:45:25;16475907;30843;-95;214;-1;-97;400;-1;-100
16475907;64359;30843;310260;-1;3;-57;6.0;-92;-15;88;LTE;30.45447;-97.75202;74;233;6.0;2019/09/10;17:45:26;16475907;30843;-97;214;-1;-102
16475907;64359;30843;310260;-1;3;-57;6.0;-92;-15;88;LTE;30.45462;-97.75211;70;233;6.0;2019/09/10;17:45:27;16475907;30843;-97;214;-1;-102
16475907;64359;30843;310260;-1;3;-65;7.2;-98;-15;88;LTE;30.45478;-97.75220;67;233;7.2;2019/09/10;17:45:28;16475907;30843;-97;214;-1;-102
16475907;64359;30843;310260;-1;3;-65;7.2;-98;-15;88;LTE;30.45492;-97.75227;63;234;7.2;2019/09/10;17:45:29;16475907;30843;-98;214;-1;-105;400;-1;-104
16475907;64359;30843;310260;-1;3;-65;7.2;-98;-15;88;LTE;30.45506;-97.75233;56;234;7.2;2019/09/10;17:45:30;16475907;30843;-98;214;-1;-105;400;-1;-104
16475907;64359;30843;310260;-1;3;-65;7.2;-98;-15;88;LTE;30.45518;-97.75238;49;233;7.2;2019/09/10;17:45:31;16475907;30843;-98;214;-1;-105;400;-1;-104
16475907;64359;30843;310260;-1;3;-65;7.2;-98;-15;88;LTE;30.45530;-97.75244;44;234;7.2;2019/09/10;17:45:32;16475907;30843;-99;214;-1;-105;400;-1;-106
16475907;64359;30843;310260;-1;3;-65;7.2;-98;-15;88;LTE;30.45539;-97.75248;38;234;7.2;2019/09/10;17:45:33;16475907;30843;-99;214;-1;-105;400;-1;-106
16475907;64359;30843;310260;-1;3;-65;7.2;-98;-15;88;LTE;30.45547;-97.75252;33;235;7.2;2019/09/10;17:45:34;16475907;30843;-97;214;-1;-105;400;-1;-107
16475907;64359;30843;310260;-1;3;-65;7.2;-98;-15;88;LTE;30.45554;-97.75255;27;236;7.2;2019/09/10;17:45:35;16475907;30843;-97;214;-1;-105;400;-1;-107
16475907;64359;30843;310260;-1;3;-65;7.2;-98;-15;88;LTE;30.45560;-97.75257;23;235;7.2;2019/09/10;17:45:36;16475907;30843;-97;214;-1;-105;400;-1;-107
16475907;64359;30843;310260;-1;3;-65;6.0;-102;-15;88;LTE;30.45565;-97.75258;18;235;6.0;2019/09/10;17:45:37;16475907;30843;-101;214;-1;-105;400;-1;-103
16475907;64359;30843;310260;-1;3;-65;6.0;-102;-15;88;LTE;30.45568;-97.75260;14;235;6.0;2019/09/10;17:45:38;16475907;30843;-101;214;-1;-105;400;-1;-103
16475907;64359;30843;310260;-1;3;-65;6.0;-102;-15;88;LTE;30.45571;-97.75261;13;234;6.0;2019/09/10;17:45:39;16475907;30843;-101;214;-1;-105;400;-1;-103
16475907;64359;30843;310260;-1;3;-65;7.2;-97;-15;88;LTE;30.45573;-97.75262;7;235;7.2;2019/09/10;17:45:40;16475907;30843;-97;214;-1;-106;400;-1;-103
16475907;64359;30843;310260;-1;3;-65;7.2;-97;-15;88;LTE;30.45574;-97.75262;3;235;7.2;2019/09/10;17:45:41;16475907;30843;-97;214;-1;-106;400;-1;-103
16475907;64359;30843;310260;-1;3;-65;3.8;-101;-15;88;LTE;30.45574;-97.75262;0;235;3.8;2019/09/10;17:45:42;16475907;30843;-97;214;-1;-106;400;-1;-103
16475907;64359;30843;310260;-1;3;-65;3.8;-101;-15;88;LTE;30.45574;-97.75262;0;234;3.8;2019/09/10;17:45:43;16475907;30843;-101
16475907;64359;30843;310260;-1;3;-65;3.8;-101;-15;88;LTE;30.45573;-97.75262;0;233;3.8;2019/09/10;17:45:44;16475907;30843;-101
16475907;64359;30843;310260;-1;3;-65;3.8;-101;-15;88;LTE;30.45573;-97.75262;0;232;3.8;2019/09/10;17:45:45;16475907;30843;-101
16475907;64359;30843;310260;-1;3;-65;-1.0;-101;-18;88;LTE;30.45573;-97.75262;0;231;-1.0;2019/09/10;17:45:46;16475907;30843;-101;400;-1;-103;214;-1;-107
16475907;64359;30843;310260;-1;3;-65;-1.0;-101;-18;88;LTE;30.45573;-97.75262;0;231;-1.0;2019/09/10;17:45:47;16475907;30843;-101;400;-1;-103;214;-1;-107
16475907;64359;30843;310260;-1;3;-65;-1.0;-101;-18;88;LTE;30.45573;-97.75262;0;230;-1.0;2019/09/10;17:45:48;16475907;30843;-101;400;-1;-103;214;-1;-107
16475907;64359;30843;310260;-1;3;-65;3.8;-101;-16;88;LTE;30.45573;-97.75262;0;230;3.8;2019/09/10;17:45:49;16475907;30843;-100;400;-1;-102;214;-1;-105
16475907;64359;30843;310260;-1;3;-65;3.8;-101;-16;88;LTE;30.45573;-97.75262;0;230;3.8;2019/09/10;17:45:50;16475907;30843;-100;400;-1;-102;214;-1;-105
16475907;64359;30843;310260;-1;3;-65;3.8;-101;-16;88;LTE;30.45573;-97.75261;0;229;3.8;2019/09/10;17:45:51;16475907;30843;-100;400;-1;-102;214;-1;-105
16475907;64359;30843;310260;-1;3;-65;3.8;-101;-16;88;LTE;30.45572;-97.75261;0;229;3.8;2019/09/10;17:45:52;16475907;30843;-100;400;-1;-102
16475907;64359;30843;310260;-1;3;-65;3.8;-101;-16;88;LTE;30.45573;-97.75261;0;229;3.8;2019/09/10;17:45:53;16475907;30843;-100;400;-1;-102
16475907;64359;30843;310260;-1;3;-65;3.8;-101;-16;88;LTE;30.45573;-97.75261;0;229;3.8;2019/09/10;17:45:54;16475907;30843;-100;400;-1;-102
16475907;64359;30843;310260;-1;3;-65;3.8;-101;-16;88;LTE;30.45572;-97.75261;0;229;3.8;2019/09/10;17:45:55;16475907;30843;-99;400;-1;-103
16475907;64359;30843;310260;-1;3;-65;3.8;-101;-16;88;LTE;30.45572;-97.75261;0;229;3.8;2019/09/10;17:45:56;16475907;30843;-99;400;-1;-103
16475907;64359;30843;310260;-1;3;-65;3.8;-101;-16;88;LTE;30.45572;-97.75261;0;229;3.8;2019/09/10;17:45:57;16475907;30843;-99;400;-1;-103
16475907;64359;30843;310260;-1;3;-65;3.8;-101;-16;88;LTE;30.45572;-97.75261;0;229;3.8;2019/09/10;17:45:58;16475907;30843;-101;400;-1;-101
16475907;64359;30843;310260;-1;3;-65;3.8;-101;-16;88;LTE;30.45572;-97.75261;0;229;3.8;2019/09/10;17:45:59;16475907;30843;-101;400;-1;-101
16475907;64359;30843;310260;-1;3;-65;3.8;-101;-16;88;LTE;30.45572;-97.75261;0;229;3.8;2019/09/10;17:46:00;16475907;30843;-101;400;-1;-101
16475907;64359;30843;310260;-1;3;-65;3.8;-101;-16;88;LTE;30.45573;-97.75261;0;229;3.8;2019/09/10;17:46:01;16475907;30843;-100;400;-1;-102
16475907;64359;30843;310260;-1;3;-65;3.8;-101;-16;88;LTE;30.45572;-97.75261;0;229;3.8;2019/09/10;17:46:02;16475907;30843;-100;400;-1;-102
16475907;64359;30843;310260;-1;3;-65;3.8;-101;-16;88;LTE;30.45572;-97.75261;0;229;3.8;2019/09/10;17:46:03;16475907;30843;-100;400;-1;-102
16475907;64359;30843;310260;-1;3;-65;3.8;-101;-16;88;LTE;30.45572;-97.75261;0;229;3.8;2019/09/10;17:46:04;16475907;30843;-100;400;-1;-101;214;-1;-106
16475907;64359;30843;310260;-1;3;-65;3.8;-101;-16;88;LTE;30.45573;-97.75261;0;229;3.8;2019/09/10;17:46:05;16475907;30843;-100;400;-1;-101;214;-1;-106
16475907;64359;30843;310260;-1;3;-65;3.8;-101;-16;88;LTE;30.45573;-97.75261;0;229;3.8;2019/09/10;17:46:06;16475907;30843;-100;400;-1;-101;214;-1;-106
16475907;64359;30843;310260;-1;3;-65;3.8;-101;-16;88;LTE;30.45573;-97.75261;0;229;3.8;2019/09/10;17:46:07;16475907;30843;-100;400;-1;-101;169;-1;-96;400;-1;-105;385;-1;-110
16475907;64359;30843;310260;-1;3;-65;3.8;-101;-16;88;LTE;30.45573;-97.75261;0;229;3.8;2019/09/10;17:46:08;16475907;30843;-100;400;-1;-101;169;-1;-96;400;-1;-105;385;-1;-110
16475907;64359;30843;310260;-1;3;-65;3.8;-101;-16;88;LTE;30.45573;-97.75261;0;229;3.8;2019/09/10;17:46:09;16475907;30843;-100;400;-1;-101;169;-1;-96;400;-1;-105;385;-1;-110
16475907;64359;30843;310260;-1;3;-65;3.8;-101;-16;88;LTE;30.45573;-97.75261;0;229;3.8;2019/09/10;17:46:10;16475907;30843;-100;400;-1;-101;169;-1;-96;400;-1;-105;385;-1;-109
16475907;64359;30843;310260;-1;3;-65;3.8;-101;-16;88;LTE;30.45573;-97.75261;0;229;3.8;2019/09/10;17:46:11;16475907;30843;-100;400;-1;-101;169;-1;-96;400;-1;-105;385;-1;-109
16475907;64359;30843;310260;-1;3;-65;3.8;-101;-16;88;LTE;30.45573;-97.75261;0;229;3.8;2019/09/10;17:46:12;16475907;30843;-100;400;-1;-101;169;-1;-96;400;-1;-105;385;-1;-109
16475907;64359;30843;310260;-1;3;-65;3.8;-101;-16;88;LTE;30.45573;-97.75261;0;229;3.8;2019/09/10;17:46:13;16475907;30843;-100;400;-1;-104;169;-1;-95;400;-1;-103;385;-1;-111
16475907;64359;30843;310260;-1;3;-65;3.8;-101;-16;88;LTE;30.45573;-97.75261;0;229;3.8;2019/09/10;17:46:14;16475907;30843;-100;400;-1;-104;169;-1;-95;400;-1;-103;385;-1;-111
16475907;64359;30843;310260;-1;3;-65;3.8;-101;-16;88;LTE;30.45573;-97.75261;6;231;3.8;2019/09/10;17:46:15;16475907;30843;-100;400;-1;-104;169;-1;-95;400;-1;-103;385;-1;-111
16475907;64359;30843;310260;-1;3;-65;3.8;-101;-16;88;LTE;30.45576;-97.75262;9;231;3.8;2019/09/10;17:46:16;16475907;30843;-104;214;-1;-105;169;-1;-99;400;-1;-109
16475907;64359;30843;310260;-1;3;-65;3.8;-101;-16;88;LTE;30.45577;-97.75262;10;231;3.8;2019/09/10;17:46:17;16475907;30843;-104;214;-1;-105;169;-1;-99;400;-1;-109
16475907;64359;30843;310260;-1;3;-65;3.8;-101;-16;88;LTE;30.45581;-97.75264;16;231;3.8;2019/09/10;17:46:18;16475907;30843;-104;214;-1;-105;169;-1;-99;400;-1;-109
16475907;64359;30843;310260;-1;3;-65;-2.4;-107;-18;88;LTE;30.45585;-97.75266;19;233;-2.4;2019/09/10;17:46:19;16475907;30843;-100;214;-1;-107;400;-1;-108;169;-1;-101;400;-1;-103
16475907;64359;30843;310260;-1;3;-65;-2.4;-107;-18;88;LTE;30.45590;-97.75267;19;233;-2.4;2019/09/10;17:46:20;16475907;30843;-100;214;-1;-107;400;-1;-108;169;-1;-101;400;-1;-103
16475907;64359;30843;310260;-1;3;-65;-2.4;-107;-18;88;LTE;30.45596;-97.75270;25;233;-2.4;2019/09/10;17:46:21;16475907;30843;-100;214;-1;-107;400;-1;-108;169;-1;-101;400;-1;-103
16475907;64359;30843;310260;-1;3;-65;-2.4;-107;-18;88;LTE;30.45605;-97.75273;30;234;-2.4;2019/09/10;17:46:22;16475907;30843;-104;214;-1;-110;400;-1;-105;169;-1;-104;400;-1;-104
16475907;64359;30843;310260;-1;3;-65;-2.4;-107;-18;88;LTE;30.45612;-97.75275;34;234;-2.4;2019/09/10;17:46:23;16475907;30843;-104;214;-1;-110;400;-1;-105;169;-1;-104;400;-1;-104
16475907;64359;30843;310260;-1;3;-65;-2.4;-107;-18;88;LTE;30.45621;-97.75279;38;234;-2.4;2019/09/10;17:46:24;16475907;30843;-104;214;-1;-110;400;-1;-105;169;-1;-104;400;-1;-104
16475907;64359;30843;310260;-1;3;-73;-2.2;-107;-18;88;LTE;30.45629;-97.75282;38;235;-2.2;2019/09/10;17:46:25;16475907;30843;-110;214;-1;-108;400;-1;-104;328;-1;-110;169;-1;-103;400;-1;-102
16475907;64359;30843;310260;-1;3;-73;-2.2;-107;-18;88;LTE;30.45638;-97.75287;42;235;-2.2;2019/09/10;17:46:26;16475907;30843;-110;214;-1;-108;400;-1;-104;328;-1;-110;169;-1;-103;400;-1;-102
16238337;63431;30843;310260;-1;1;-73;-2.2;-107;-18;88;LTE;30.45650;-97.75292;45;235;-2.2;2019/09/10;17:46:27;16475907;30843;-110;214;-1;-108;400;-1;-104;328;-1;-110;169;-1;-103;400;-1;-102
16238337;63431;30843;310260;-1;1;-67;1.2;-101;-16;88;LTE;30.45661;-97.75296;48;236;1.2;2019/09/10;17:46:28;16238337;30843;-103;452;-1;-108;214;-1;-104
16238337;63431;30843;310260;-1;1;-67;1.2;-101;-16;88;LTE;30.45672;-97.75300;51;236;1.2;2019/09/10;17:46:29;16238337;30843;-103;452;-1;-108;214;-1;-104
16238337;63431;30843;310260;-1;1;-67;1.2;-101;-16;88;LTE;30.45684;-97.75305;53;237;1.2;2019/09/10;17:46:30;16238337;30843;-103;452;-1;-108;214;-1;-104
16238337;63431;30843;310260;-1;1;-67;1.2;-101;-16;88;LTE;30.45698;-97.75310;56;237;1.2;2019/09/10;17:46:31;16238337;30843;-106;452;-1;-106;214;-1;-106
16238337;63431;30843;310260;-1;1;-67;-8.2;-109;-20;88;LTE;30.45712;-97.75315;57;238;-8.2;2019/09/10;17:46:32;16238337;30843;-106;452;-1;-106;214;-1;-106
16238337;63431;30843;310260;-1;1;-67;-8.2;-109;-20;88;LTE;30.45725;-97.75320;58;238;-8.2;2019/09/10;17:46:33;16238337;30843;-106;452;-1;-106;214;-1;-106
16238337;63431;30843;310260;-1;1;-67;-8.2;-109;-20;88;LTE;30.45739;-97.75326;61;237;-8.2;2019/09/10;17:46:34;16238337;30843;-105;452;-1;-103;214;-1;-105;328;-1;-104;422;-1;-106
16238337;63431;30843;310260;-1;1;-67;-8.2;-109;-20;88;LTE;30.45754;-97.75332;64;237;-8.2;2019/09/10;17:46:35;16238337;30843;-105;452;-1;-103;214;-1;-105;328;-1;-104;422;-1;-106
16238337;63431;30843;310260;-1;1;-67;-8.2;-109;-20;88;LTE;30.45770;-97.75339;66;238;-8.2;2019/09/10;17:46:36;16238337;30843;-105;452;-1;-103;214;-1;-105;328;-1;-104;422;-1;-106
16475907;64359;30843;310260;-1;3;-67;-7.2;-103;-20;88;LTE;30.45785;-97.75345;68;238;-7.2;2019/09/10;17:46:37;16475907;30843;-101;328;-1;-103;400;-1;-106;214;-1;-106
16475907;64359;30843;310260;-1;3;-67;-7.2;-103;-20;88;LTE;30.45801;-97.75351;68;239;-7.2;2019/09/10;17:46:38;16475907;30843;-101;328;-1;-103;400;-1;-106;214;-1;-106
16475907;64359;30843;310260;-1;3;-77;-7.2;-99;-14;88;LTE;30.45818;-97.75357;68;239;-7.2;2019/09/10;17:46:39;16475907;30843;-101;328;-1;-103;400;-1;-106;214;-1;-106
16475907;64359;30843;310260;-1;3;-77;-7.2;-99;-14;88;LTE;30.45834;-97.75364;69;240;-7.2;2019/09/10;17:46:40;16475907;30843;-106;328;-1;-100;400;-1;-104;327;-1;-101;450;-1;-102
16475907;64359;30843;310260;-1;3;-67;-5.0;-105;-20;88;LTE;30.45850;-97.75370;68;240;-5.0;2019/09/10;17:46:41;16475907;30843;-106;328;-1;-100;400;-1;-104;327;-1;-101;450;-1;-102
16475907;64359;30843;310260;-1;3;-67;-5.0;-105;-20;88;LTE;30.45867;-97.75377;68;239;-5.0;2019/09/10;17:46:42;16475907;30843;-106;328;-1;-100;400;-1;-104;327;-1;-101;450;-1;-102
17040386;66564;30843;310260;-1;2;-67;-5.0;-105;-20;88;LTE;30.45883;-97.75383;67;239;-5.0;2019/09/10;17:46:43;17040386;30843;-104
17040386;66564;30843;310260;-1;2;-67;-5.0;-105;-20;88;LTE;30.45899;-97.75390;66;239;-5.0;2019/09/10;17:46:44;17040386;30843;-104
17040386;66564;30843;310260;-1;2;-67;-5.0;-105;-20;88;LTE;30.45915;-97.75395;65;239;-5.0;2019/09/10;17:46:45;17040386;30843;-104
17040386;66564;30843;310260;-1;2;-67;2.2;-100;-15;88;LTE;30.45930;-97.75401;62;238;2.2;2019/09/10;17:46:46;17040386;30843;-105;450;-1;-103
17040386;66564;30843;310260;-1;2;-67;2.2;-100;-15;88;LTE;30.45944;-97.75407;58;238;2.2;2019/09/10;17:46:47;17040386;30843;-105;450;-1;-103
17040386;66564;30843;310260;-1;2;-67;2.2;-100;-15;88;LTE;30.45957;-97.75411;54;238;2.2;2019/09/10;17:46:48;17040386;30843;-105;450;-1;-103
17040386;66564;30843;310260;-1;2;-67;2.2;-100;-15;88;LTE;30.45969;-97.75416;49;238;2.2;2019/09/10;17:46:49;17040386;30843;-108;450;-1;-104;452;-1;-99;364;-1;-103
17040386;66564;30843;310260;-1;2;-67;2.2;-100;-15;88;LTE;30.45979;-97.75420;42;238;2.2;2019/09/10;17:46:50;17040386;30843;-108;450;-1;-104;452;-1;-99;364;-1;-103
